﻿set_chronicle_contents_effect = {

	# For version 1.1.0
	if = {
		limit = {
			exists = global_var:chronicle_mod_version
			global_var:chronicle_mod_version < 1.20
		}
		if = {
			limit = { NOT = { exists = scope:recipient.var:type1 } }
			set_chronicle_contents_with_index_effect = { INDEX = 1 TYPE = $TYPE$ CHAR = $CHAR$ TITLE = $TITLE$ FLAG_A = $FLAG_A$ FLAG_B = $FLAG_B$ FLAG_C = $FLAG_C$ FLAG_D = $FLAG_D$ FLAG_E = $FLAG_E$ }
		}
		else_if = {
			limit = { NOT = { exists = scope:recipient.var:type2 } }
			set_chronicle_contents_with_index_effect = { INDEX = 2 TYPE = $TYPE$ CHAR = $CHAR$ TITLE = $TITLE$ FLAG_A = $FLAG_A$ FLAG_B = $FLAG_B$ FLAG_C = $FLAG_C$ FLAG_D = $FLAG_D$ FLAG_E = $FLAG_E$ }
		}
		else_if = {
			limit = { NOT = { exists = scope:recipient.var:type3 } }
			set_chronicle_contents_with_index_effect = { INDEX = 3 TYPE = $TYPE$ CHAR = $CHAR$ TITLE = $TITLE$ FLAG_A = $FLAG_A$ FLAG_B = $FLAG_B$ FLAG_C = $FLAG_C$ FLAG_D = $FLAG_D$ FLAG_E = $FLAG_E$ }
		}
		else_if = {
			limit = { NOT = { exists = scope:recipient.var:type4 } }
			set_chronicle_contents_with_index_effect = { INDEX = 4 TYPE = $TYPE$ CHAR = $CHAR$ TITLE = $TITLE$ FLAG_A = $FLAG_A$ FLAG_B = $FLAG_B$ FLAG_C = $FLAG_C$ FLAG_D = $FLAG_D$ FLAG_E = $FLAG_E$ }
		}
		else_if = {
			limit = { NOT = { exists = scope:recipient.var:type5 } }
			set_chronicle_contents_with_index_effect = { INDEX = 5 TYPE = $TYPE$ CHAR = $CHAR$ TITLE = $TITLE$ FLAG_A = $FLAG_A$ FLAG_B = $FLAG_B$ FLAG_C = $FLAG_C$ FLAG_D = $FLAG_D$ FLAG_E = $FLAG_E$ }
		}
		else_if = {
			limit = { NOT = { exists = scope:recipient.var:type6 } }
			set_chronicle_contents_with_index_effect = { INDEX = 6 TYPE = $TYPE$ CHAR = $CHAR$ TITLE = $TITLE$ FLAG_A = $FLAG_A$ FLAG_B = $FLAG_B$ FLAG_C = $FLAG_C$ FLAG_D = $FLAG_D$ FLAG_E = $FLAG_E$ }
		}
		else_if = {
			limit = { NOT = { exists = scope:recipient.var:type7 } }
			set_chronicle_contents_with_index_effect = { INDEX = 7 TYPE = $TYPE$ CHAR = $CHAR$ TITLE = $TITLE$ FLAG_A = $FLAG_A$ FLAG_B = $FLAG_B$ FLAG_C = $FLAG_C$ FLAG_D = $FLAG_D$ FLAG_E = $FLAG_E$ }
		}
		else_if = {
			limit = { NOT = { exists = scope:recipient.var:type8 } }
			set_chronicle_contents_with_index_effect = { INDEX = 8 TYPE = $TYPE$ CHAR = $CHAR$ TITLE = $TITLE$ FLAG_A = $FLAG_A$ FLAG_B = $FLAG_B$ FLAG_C = $FLAG_C$ FLAG_D = $FLAG_D$ FLAG_E = $FLAG_E$ }
		}
		else_if = {
			limit = { NOT = { exists = scope:recipient.var:type9 } }
			set_chronicle_contents_with_index_effect = { INDEX = 9 TYPE = $TYPE$ CHAR = $CHAR$ TITLE = $TITLE$ FLAG_A = $FLAG_A$ FLAG_B = $FLAG_B$ FLAG_C = $FLAG_C$ FLAG_D = $FLAG_D$ FLAG_E = $FLAG_E$ }
		}
		else_if = {
			limit = { NOT = { exists = scope:recipient.var:type10 } }
			set_chronicle_contents_with_index_effect = { INDEX = 10 TYPE = $TYPE$ CHAR = $CHAR$ TITLE = $TITLE$ FLAG_A = $FLAG_A$ FLAG_B = $FLAG_B$ FLAG_C = $FLAG_C$ FLAG_D = $FLAG_D$ FLAG_E = $FLAG_E$ }
		}
		else = {
			shift_chronicle_contents_with_index_effect = { INDEX1 = 1 INDEX2 = 2 }
			shift_chronicle_contents_with_index_effect = { INDEX1 = 2 INDEX2 = 3 }
			shift_chronicle_contents_with_index_effect = { INDEX1 = 3 INDEX2 = 4 }
			shift_chronicle_contents_with_index_effect = { INDEX1 = 4 INDEX2 = 5 }
			shift_chronicle_contents_with_index_effect = { INDEX1 = 5 INDEX2 = 6 }
			shift_chronicle_contents_with_index_effect = { INDEX1 = 6 INDEX2 = 7 }
			shift_chronicle_contents_with_index_effect = { INDEX1 = 7 INDEX2 = 8 }
			shift_chronicle_contents_with_index_effect = { INDEX1 = 8 INDEX2 = 9 }
			shift_chronicle_contents_with_index_effect = { INDEX1 = 9 INDEX2 = 10 }
			set_chronicle_contents_with_index_effect = { INDEX = 10 TYPE = $TYPE$ CHAR = $CHAR$ TITLE = $TITLE$ FLAG_A = $FLAG_A$ FLAG_B = $FLAG_B$ FLAG_C = $FLAG_C$ FLAG_D = $FLAG_D$ FLAG_E = $FLAG_E$ }
		}
	}
	# For version 1.2.0 or later
	else = {
		if = {
			limit = { NOT = { exists = scope:recipient.var:type1 } }
			set_chronicle_contents_with_index_effect = { INDEX = 1 TYPE = $TYPE$ CHAR = $CHAR$ TITLE = $TITLE$ FLAG_A = $FLAG_A$ FLAG_B = $FLAG_B$ FLAG_C = $FLAG_C$ FLAG_D = $FLAG_D$ FLAG_E = $FLAG_E$ }
		}
		else_if = {
			limit = { NOT = { exists = scope:recipient.var:type2 } }
			set_chronicle_contents_with_index_effect = { INDEX = 2 TYPE = $TYPE$ CHAR = $CHAR$ TITLE = $TITLE$ FLAG_A = $FLAG_A$ FLAG_B = $FLAG_B$ FLAG_C = $FLAG_C$ FLAG_D = $FLAG_D$ FLAG_E = $FLAG_E$ }
		}
		else_if = {
			limit = { NOT = { exists = scope:recipient.var:type3 } }
			set_chronicle_contents_with_index_effect = { INDEX = 3 TYPE = $TYPE$ CHAR = $CHAR$ TITLE = $TITLE$ FLAG_A = $FLAG_A$ FLAG_B = $FLAG_B$ FLAG_C = $FLAG_C$ FLAG_D = $FLAG_D$ FLAG_E = $FLAG_E$ }
		}
		else_if = {
			limit = { NOT = { exists = scope:recipient.var:type4 } }
			set_chronicle_contents_with_index_effect = { INDEX = 4 TYPE = $TYPE$ CHAR = $CHAR$ TITLE = $TITLE$ FLAG_A = $FLAG_A$ FLAG_B = $FLAG_B$ FLAG_C = $FLAG_C$ FLAG_D = $FLAG_D$ FLAG_E = $FLAG_E$ }
		}
		else_if = {
			limit = { NOT = { exists = scope:recipient.var:type5 } }
			set_chronicle_contents_with_index_effect = { INDEX = 5 TYPE = $TYPE$ CHAR = $CHAR$ TITLE = $TITLE$ FLAG_A = $FLAG_A$ FLAG_B = $FLAG_B$ FLAG_C = $FLAG_C$ FLAG_D = $FLAG_D$ FLAG_E = $FLAG_E$ }
		}
		else_if = {
			limit = { NOT = { exists = scope:recipient.var:type6 } }
			set_chronicle_contents_with_index_effect = { INDEX = 6 TYPE = $TYPE$ CHAR = $CHAR$ TITLE = $TITLE$ FLAG_A = $FLAG_A$ FLAG_B = $FLAG_B$ FLAG_C = $FLAG_C$ FLAG_D = $FLAG_D$ FLAG_E = $FLAG_E$ }
		}
		else_if = {
			limit = { NOT = { exists = scope:recipient.var:type7 } }
			set_chronicle_contents_with_index_effect = { INDEX = 7 TYPE = $TYPE$ CHAR = $CHAR$ TITLE = $TITLE$ FLAG_A = $FLAG_A$ FLAG_B = $FLAG_B$ FLAG_C = $FLAG_C$ FLAG_D = $FLAG_D$ FLAG_E = $FLAG_E$ }
		}
		else_if = {
			limit = { NOT = { exists = scope:recipient.var:type8 } }
			set_chronicle_contents_with_index_effect = { INDEX = 8 TYPE = $TYPE$ CHAR = $CHAR$ TITLE = $TITLE$ FLAG_A = $FLAG_A$ FLAG_B = $FLAG_B$ FLAG_C = $FLAG_C$ FLAG_D = $FLAG_D$ FLAG_E = $FLAG_E$ }
		}
		else_if = {
			limit = { NOT = { exists = scope:recipient.var:type9 } }
			set_chronicle_contents_with_index_effect = { INDEX = 9 TYPE = $TYPE$ CHAR = $CHAR$ TITLE = $TITLE$ FLAG_A = $FLAG_A$ FLAG_B = $FLAG_B$ FLAG_C = $FLAG_C$ FLAG_D = $FLAG_D$ FLAG_E = $FLAG_E$ }
		}
		else_if = {
			limit = { NOT = { exists = scope:recipient.var:type10 } }
			set_chronicle_contents_with_index_effect = { INDEX = 10 TYPE = $TYPE$ CHAR = $CHAR$ TITLE = $TITLE$ FLAG_A = $FLAG_A$ FLAG_B = $FLAG_B$ FLAG_C = $FLAG_C$ FLAG_D = $FLAG_D$ FLAG_E = $FLAG_E$ }
		}
		else_if = {
			limit = { NOT = { exists = scope:recipient.var:type11 } }
			set_chronicle_contents_with_index_effect = { INDEX = 11 TYPE = $TYPE$ CHAR = $CHAR$ TITLE = $TITLE$ FLAG_A = $FLAG_A$ FLAG_B = $FLAG_B$ FLAG_C = $FLAG_C$ FLAG_D = $FLAG_D$ FLAG_E = $FLAG_E$ }
		}
		else_if = {
			limit = { NOT = { exists = scope:recipient.var:type12 } }
			set_chronicle_contents_with_index_effect = { INDEX = 12 TYPE = $TYPE$ CHAR = $CHAR$ TITLE = $TITLE$ FLAG_A = $FLAG_A$ FLAG_B = $FLAG_B$ FLAG_C = $FLAG_C$ FLAG_D = $FLAG_D$ FLAG_E = $FLAG_E$ }
		}
		else_if = {
			limit = { NOT = { exists = scope:recipient.var:type13 } }
			set_chronicle_contents_with_index_effect = { INDEX = 13 TYPE = $TYPE$ CHAR = $CHAR$ TITLE = $TITLE$ FLAG_A = $FLAG_A$ FLAG_B = $FLAG_B$ FLAG_C = $FLAG_C$ FLAG_D = $FLAG_D$ FLAG_E = $FLAG_E$ }
		}
		else_if = {
			limit = { NOT = { exists = scope:recipient.var:type14 } }
			set_chronicle_contents_with_index_effect = { INDEX = 14 TYPE = $TYPE$ CHAR = $CHAR$ TITLE = $TITLE$ FLAG_A = $FLAG_A$ FLAG_B = $FLAG_B$ FLAG_C = $FLAG_C$ FLAG_D = $FLAG_D$ FLAG_E = $FLAG_E$ }
		}
		else_if = {
			limit = { NOT = { exists = scope:recipient.var:type15 } }
			set_chronicle_contents_with_index_effect = { INDEX = 15 TYPE = $TYPE$ CHAR = $CHAR$ TITLE = $TITLE$ FLAG_A = $FLAG_A$ FLAG_B = $FLAG_B$ FLAG_C = $FLAG_C$ FLAG_D = $FLAG_D$ FLAG_E = $FLAG_E$ }
		}
		else_if = {
			limit = { NOT = { exists = scope:recipient.var:type16 } }
			set_chronicle_contents_with_index_effect = { INDEX = 16 TYPE = $TYPE$ CHAR = $CHAR$ TITLE = $TITLE$ FLAG_A = $FLAG_A$ FLAG_B = $FLAG_B$ FLAG_C = $FLAG_C$ FLAG_D = $FLAG_D$ FLAG_E = $FLAG_E$ }
		}
		else_if = {
			limit = { NOT = { exists = scope:recipient.var:type17 } }
			set_chronicle_contents_with_index_effect = { INDEX = 17 TYPE = $TYPE$ CHAR = $CHAR$ TITLE = $TITLE$ FLAG_A = $FLAG_A$ FLAG_B = $FLAG_B$ FLAG_C = $FLAG_C$ FLAG_D = $FLAG_D$ FLAG_E = $FLAG_E$ }
		}
		else_if = {
			limit = { NOT = { exists = scope:recipient.var:type18 } }
			set_chronicle_contents_with_index_effect = { INDEX = 18 TYPE = $TYPE$ CHAR = $CHAR$ TITLE = $TITLE$ FLAG_A = $FLAG_A$ FLAG_B = $FLAG_B$ FLAG_C = $FLAG_C$ FLAG_D = $FLAG_D$ FLAG_E = $FLAG_E$ }
		}
		else_if = {
			limit = { NOT = { exists = scope:recipient.var:type19 } }
			set_chronicle_contents_with_index_effect = { INDEX = 19 TYPE = $TYPE$ CHAR = $CHAR$ TITLE = $TITLE$ FLAG_A = $FLAG_A$ FLAG_B = $FLAG_B$ FLAG_C = $FLAG_C$ FLAG_D = $FLAG_D$ FLAG_E = $FLAG_E$ }
		}
		else_if = {
			limit = { NOT = { exists = scope:recipient.var:type20 } }
			set_chronicle_contents_with_index_effect = { INDEX = 20 TYPE = $TYPE$ CHAR = $CHAR$ TITLE = $TITLE$ FLAG_A = $FLAG_A$ FLAG_B = $FLAG_B$ FLAG_C = $FLAG_C$ FLAG_D = $FLAG_D$ FLAG_E = $FLAG_E$ }
		}
		else_if = {
			limit = { NOT = { exists = scope:recipient.var:type21 } }
			set_chronicle_contents_with_index_effect = { INDEX = 21 TYPE = $TYPE$ CHAR = $CHAR$ TITLE = $TITLE$ FLAG_A = $FLAG_A$ FLAG_B = $FLAG_B$ FLAG_C = $FLAG_C$ FLAG_D = $FLAG_D$ FLAG_E = $FLAG_E$ }
		}
		else_if = {
			limit = { NOT = { exists = scope:recipient.var:type22 } }
			set_chronicle_contents_with_index_effect = { INDEX = 22 TYPE = $TYPE$ CHAR = $CHAR$ TITLE = $TITLE$ FLAG_A = $FLAG_A$ FLAG_B = $FLAG_B$ FLAG_C = $FLAG_C$ FLAG_D = $FLAG_D$ FLAG_E = $FLAG_E$ }
		}
		else_if = {
			limit = { NOT = { exists = scope:recipient.var:type23 } }
			set_chronicle_contents_with_index_effect = { INDEX = 23 TYPE = $TYPE$ CHAR = $CHAR$ TITLE = $TITLE$ FLAG_A = $FLAG_A$ FLAG_B = $FLAG_B$ FLAG_C = $FLAG_C$ FLAG_D = $FLAG_D$ FLAG_E = $FLAG_E$ }
		}
		else_if = {
			limit = { NOT = { exists = scope:recipient.var:type24 } }
			set_chronicle_contents_with_index_effect = { INDEX = 24 TYPE = $TYPE$ CHAR = $CHAR$ TITLE = $TITLE$ FLAG_A = $FLAG_A$ FLAG_B = $FLAG_B$ FLAG_C = $FLAG_C$ FLAG_D = $FLAG_D$ FLAG_E = $FLAG_E$ }
		}
		else_if = {
			limit = { NOT = { exists = scope:recipient.var:type25 } }
			set_chronicle_contents_with_index_effect = { INDEX = 25 TYPE = $TYPE$ CHAR = $CHAR$ TITLE = $TITLE$ FLAG_A = $FLAG_A$ FLAG_B = $FLAG_B$ FLAG_C = $FLAG_C$ FLAG_D = $FLAG_D$ FLAG_E = $FLAG_E$ }
		}
		else_if = {
			limit = { NOT = { exists = scope:recipient.var:type26 } }
			set_chronicle_contents_with_index_effect = { INDEX = 26 TYPE = $TYPE$ CHAR = $CHAR$ TITLE = $TITLE$ FLAG_A = $FLAG_A$ FLAG_B = $FLAG_B$ FLAG_C = $FLAG_C$ FLAG_D = $FLAG_D$ FLAG_E = $FLAG_E$ }
		}
		else_if = {
			limit = { NOT = { exists = scope:recipient.var:type27 } }
			set_chronicle_contents_with_index_effect = { INDEX = 27 TYPE = $TYPE$ CHAR = $CHAR$ TITLE = $TITLE$ FLAG_A = $FLAG_A$ FLAG_B = $FLAG_B$ FLAG_C = $FLAG_C$ FLAG_D = $FLAG_D$ FLAG_E = $FLAG_E$ }
		}
		else_if = {
			limit = { NOT = { exists = scope:recipient.var:type28 } }
			set_chronicle_contents_with_index_effect = { INDEX = 28 TYPE = $TYPE$ CHAR = $CHAR$ TITLE = $TITLE$ FLAG_A = $FLAG_A$ FLAG_B = $FLAG_B$ FLAG_C = $FLAG_C$ FLAG_D = $FLAG_D$ FLAG_E = $FLAG_E$ }
		}
		else_if = {
			limit = { NOT = { exists = scope:recipient.var:type29 } }
			set_chronicle_contents_with_index_effect = { INDEX = 29 TYPE = $TYPE$ CHAR = $CHAR$ TITLE = $TITLE$ FLAG_A = $FLAG_A$ FLAG_B = $FLAG_B$ FLAG_C = $FLAG_C$ FLAG_D = $FLAG_D$ FLAG_E = $FLAG_E$ }
		}
		else_if = {
			limit = { NOT = { exists = scope:recipient.var:type30 } }
			set_chronicle_contents_with_index_effect = { INDEX = 30 TYPE = $TYPE$ CHAR = $CHAR$ TITLE = $TITLE$ FLAG_A = $FLAG_A$ FLAG_B = $FLAG_B$ FLAG_C = $FLAG_C$ FLAG_D = $FLAG_D$ FLAG_E = $FLAG_E$ }
		}
		else_if = {
			limit = { NOT = { exists = scope:recipient.var:type31 } }
			set_chronicle_contents_with_index_effect = { INDEX = 31 TYPE = $TYPE$ CHAR = $CHAR$ TITLE = $TITLE$ FLAG_A = $FLAG_A$ FLAG_B = $FLAG_B$ FLAG_C = $FLAG_C$ FLAG_D = $FLAG_D$ FLAG_E = $FLAG_E$ }
		}
		else_if = {
			limit = { NOT = { exists = scope:recipient.var:type32 } }
			set_chronicle_contents_with_index_effect = { INDEX = 32 TYPE = $TYPE$ CHAR = $CHAR$ TITLE = $TITLE$ FLAG_A = $FLAG_A$ FLAG_B = $FLAG_B$ FLAG_C = $FLAG_C$ FLAG_D = $FLAG_D$ FLAG_E = $FLAG_E$ }
		}
		else_if = {
			limit = { NOT = { exists = scope:recipient.var:type33 } }
			set_chronicle_contents_with_index_effect = { INDEX = 33 TYPE = $TYPE$ CHAR = $CHAR$ TITLE = $TITLE$ FLAG_A = $FLAG_A$ FLAG_B = $FLAG_B$ FLAG_C = $FLAG_C$ FLAG_D = $FLAG_D$ FLAG_E = $FLAG_E$ }
		}
		else_if = {
			limit = { NOT = { exists = scope:recipient.var:type34 } }
			set_chronicle_contents_with_index_effect = { INDEX = 34 TYPE = $TYPE$ CHAR = $CHAR$ TITLE = $TITLE$ FLAG_A = $FLAG_A$ FLAG_B = $FLAG_B$ FLAG_C = $FLAG_C$ FLAG_D = $FLAG_D$ FLAG_E = $FLAG_E$ }
		}
		else_if = {
			limit = { NOT = { exists = scope:recipient.var:type35 } }
			set_chronicle_contents_with_index_effect = { INDEX = 35 TYPE = $TYPE$ CHAR = $CHAR$ TITLE = $TITLE$ FLAG_A = $FLAG_A$ FLAG_B = $FLAG_B$ FLAG_C = $FLAG_C$ FLAG_D = $FLAG_D$ FLAG_E = $FLAG_E$ }
		}
		else_if = {
			limit = { NOT = { exists = scope:recipient.var:type36 } }
			set_chronicle_contents_with_index_effect = { INDEX = 36 TYPE = $TYPE$ CHAR = $CHAR$ TITLE = $TITLE$ FLAG_A = $FLAG_A$ FLAG_B = $FLAG_B$ FLAG_C = $FLAG_C$ FLAG_D = $FLAG_D$ FLAG_E = $FLAG_E$ }
		}
		else_if = {
			limit = { NOT = { exists = scope:recipient.var:type37 } }
			set_chronicle_contents_with_index_effect = { INDEX = 37 TYPE = $TYPE$ CHAR = $CHAR$ TITLE = $TITLE$ FLAG_A = $FLAG_A$ FLAG_B = $FLAG_B$ FLAG_C = $FLAG_C$ FLAG_D = $FLAG_D$ FLAG_E = $FLAG_E$ }
		}
		else_if = {
			limit = { NOT = { exists = scope:recipient.var:type38 } }
			set_chronicle_contents_with_index_effect = { INDEX = 38 TYPE = $TYPE$ CHAR = $CHAR$ TITLE = $TITLE$ FLAG_A = $FLAG_A$ FLAG_B = $FLAG_B$ FLAG_C = $FLAG_C$ FLAG_D = $FLAG_D$ FLAG_E = $FLAG_E$ }
		}
		else_if = {
			limit = { NOT = { exists = scope:recipient.var:type39 } }
			set_chronicle_contents_with_index_effect = { INDEX = 39 TYPE = $TYPE$ CHAR = $CHAR$ TITLE = $TITLE$ FLAG_A = $FLAG_A$ FLAG_B = $FLAG_B$ FLAG_C = $FLAG_C$ FLAG_D = $FLAG_D$ FLAG_E = $FLAG_E$ }
		}
		else_if = {
			limit = { NOT = { exists = scope:recipient.var:type40 } }
			set_chronicle_contents_with_index_effect = { INDEX = 40 TYPE = $TYPE$ CHAR = $CHAR$ TITLE = $TITLE$ FLAG_A = $FLAG_A$ FLAG_B = $FLAG_B$ FLAG_C = $FLAG_C$ FLAG_D = $FLAG_D$ FLAG_E = $FLAG_E$ }
		}
		else_if = {
			limit = { NOT = { exists = scope:recipient.var:type41 } }
			set_chronicle_contents_with_index_effect = { INDEX = 41 TYPE = $TYPE$ CHAR = $CHAR$ TITLE = $TITLE$ FLAG_A = $FLAG_A$ FLAG_B = $FLAG_B$ FLAG_C = $FLAG_C$ FLAG_D = $FLAG_D$ FLAG_E = $FLAG_E$ }
		}
		else_if = {
			limit = { NOT = { exists = scope:recipient.var:type42 } }
			set_chronicle_contents_with_index_effect = { INDEX = 42 TYPE = $TYPE$ CHAR = $CHAR$ TITLE = $TITLE$ FLAG_A = $FLAG_A$ FLAG_B = $FLAG_B$ FLAG_C = $FLAG_C$ FLAG_D = $FLAG_D$ FLAG_E = $FLAG_E$ }
		}
		else_if = {
			limit = { NOT = { exists = scope:recipient.var:type43 } }
			set_chronicle_contents_with_index_effect = { INDEX = 43 TYPE = $TYPE$ CHAR = $CHAR$ TITLE = $TITLE$ FLAG_A = $FLAG_A$ FLAG_B = $FLAG_B$ FLAG_C = $FLAG_C$ FLAG_D = $FLAG_D$ FLAG_E = $FLAG_E$ }
		}
		else_if = {
			limit = { NOT = { exists = scope:recipient.var:type44 } }
			set_chronicle_contents_with_index_effect = { INDEX = 44 TYPE = $TYPE$ CHAR = $CHAR$ TITLE = $TITLE$ FLAG_A = $FLAG_A$ FLAG_B = $FLAG_B$ FLAG_C = $FLAG_C$ FLAG_D = $FLAG_D$ FLAG_E = $FLAG_E$ }
		}
		else_if = {
			limit = { NOT = { exists = scope:recipient.var:type45 } }
			set_chronicle_contents_with_index_effect = { INDEX = 45 TYPE = $TYPE$ CHAR = $CHAR$ TITLE = $TITLE$ FLAG_A = $FLAG_A$ FLAG_B = $FLAG_B$ FLAG_C = $FLAG_C$ FLAG_D = $FLAG_D$ FLAG_E = $FLAG_E$ }
		}
		else_if = {
			limit = { NOT = { exists = scope:recipient.var:type46 } }
			set_chronicle_contents_with_index_effect = { INDEX = 46 TYPE = $TYPE$ CHAR = $CHAR$ TITLE = $TITLE$ FLAG_A = $FLAG_A$ FLAG_B = $FLAG_B$ FLAG_C = $FLAG_C$ FLAG_D = $FLAG_D$ FLAG_E = $FLAG_E$ }
		}
		else_if = {
			limit = { NOT = { exists = scope:recipient.var:type47 } }
			set_chronicle_contents_with_index_effect = { INDEX = 47 TYPE = $TYPE$ CHAR = $CHAR$ TITLE = $TITLE$ FLAG_A = $FLAG_A$ FLAG_B = $FLAG_B$ FLAG_C = $FLAG_C$ FLAG_D = $FLAG_D$ FLAG_E = $FLAG_E$ }
		}
		else_if = {
			limit = { NOT = { exists = scope:recipient.var:type48 } }
			set_chronicle_contents_with_index_effect = { INDEX = 48 TYPE = $TYPE$ CHAR = $CHAR$ TITLE = $TITLE$ FLAG_A = $FLAG_A$ FLAG_B = $FLAG_B$ FLAG_C = $FLAG_C$ FLAG_D = $FLAG_D$ FLAG_E = $FLAG_E$ }
		}
		else_if = {
			limit = { NOT = { exists = scope:recipient.var:type49 } }
			set_chronicle_contents_with_index_effect = { INDEX = 49 TYPE = $TYPE$ CHAR = $CHAR$ TITLE = $TITLE$ FLAG_A = $FLAG_A$ FLAG_B = $FLAG_B$ FLAG_C = $FLAG_C$ FLAG_D = $FLAG_D$ FLAG_E = $FLAG_E$ }
		}
		else_if = {
			limit = { NOT = { exists = scope:recipient.var:type50 } }
			set_chronicle_contents_with_index_effect = { INDEX = 50 TYPE = $TYPE$ CHAR = $CHAR$ TITLE = $TITLE$ FLAG_A = $FLAG_A$ FLAG_B = $FLAG_B$ FLAG_C = $FLAG_C$ FLAG_D = $FLAG_D$ FLAG_E = $FLAG_E$ }
		}
		else_if = {
			limit = { NOT = { exists = scope:recipient.var:type51 } }
			set_chronicle_contents_with_index_effect = { INDEX = 51 TYPE = $TYPE$ CHAR = $CHAR$ TITLE = $TITLE$ FLAG_A = $FLAG_A$ FLAG_B = $FLAG_B$ FLAG_C = $FLAG_C$ FLAG_D = $FLAG_D$ FLAG_E = $FLAG_E$ }
		}
		else_if = {
			limit = { NOT = { exists = scope:recipient.var:type52 } }
			set_chronicle_contents_with_index_effect = { INDEX = 52 TYPE = $TYPE$ CHAR = $CHAR$ TITLE = $TITLE$ FLAG_A = $FLAG_A$ FLAG_B = $FLAG_B$ FLAG_C = $FLAG_C$ FLAG_D = $FLAG_D$ FLAG_E = $FLAG_E$ }
		}
		else_if = {
			limit = { NOT = { exists = scope:recipient.var:type53 } }
			set_chronicle_contents_with_index_effect = { INDEX = 53 TYPE = $TYPE$ CHAR = $CHAR$ TITLE = $TITLE$ FLAG_A = $FLAG_A$ FLAG_B = $FLAG_B$ FLAG_C = $FLAG_C$ FLAG_D = $FLAG_D$ FLAG_E = $FLAG_E$ }
		}
		else_if = {
			limit = { NOT = { exists = scope:recipient.var:type54 } }
			set_chronicle_contents_with_index_effect = { INDEX = 54 TYPE = $TYPE$ CHAR = $CHAR$ TITLE = $TITLE$ FLAG_A = $FLAG_A$ FLAG_B = $FLAG_B$ FLAG_C = $FLAG_C$ FLAG_D = $FLAG_D$ FLAG_E = $FLAG_E$ }
		}
		else_if = {
			limit = { NOT = { exists = scope:recipient.var:type55 } }
			set_chronicle_contents_with_index_effect = { INDEX = 55 TYPE = $TYPE$ CHAR = $CHAR$ TITLE = $TITLE$ FLAG_A = $FLAG_A$ FLAG_B = $FLAG_B$ FLAG_C = $FLAG_C$ FLAG_D = $FLAG_D$ FLAG_E = $FLAG_E$ }
		}
		else_if = {
			limit = { NOT = { exists = scope:recipient.var:type56 } }
			set_chronicle_contents_with_index_effect = { INDEX = 56 TYPE = $TYPE$ CHAR = $CHAR$ TITLE = $TITLE$ FLAG_A = $FLAG_A$ FLAG_B = $FLAG_B$ FLAG_C = $FLAG_C$ FLAG_D = $FLAG_D$ FLAG_E = $FLAG_E$ }
		}
		else_if = {
			limit = { NOT = { exists = scope:recipient.var:type57 } }
			set_chronicle_contents_with_index_effect = { INDEX = 57 TYPE = $TYPE$ CHAR = $CHAR$ TITLE = $TITLE$ FLAG_A = $FLAG_A$ FLAG_B = $FLAG_B$ FLAG_C = $FLAG_C$ FLAG_D = $FLAG_D$ FLAG_E = $FLAG_E$ }
		}
		else_if = {
			limit = { NOT = { exists = scope:recipient.var:type58 } }
			set_chronicle_contents_with_index_effect = { INDEX = 58 TYPE = $TYPE$ CHAR = $CHAR$ TITLE = $TITLE$ FLAG_A = $FLAG_A$ FLAG_B = $FLAG_B$ FLAG_C = $FLAG_C$ FLAG_D = $FLAG_D$ FLAG_E = $FLAG_E$ }
		}
		else_if = {
			limit = { NOT = { exists = scope:recipient.var:type59 } }
			set_chronicle_contents_with_index_effect = { INDEX = 59 TYPE = $TYPE$ CHAR = $CHAR$ TITLE = $TITLE$ FLAG_A = $FLAG_A$ FLAG_B = $FLAG_B$ FLAG_C = $FLAG_C$ FLAG_D = $FLAG_D$ FLAG_E = $FLAG_E$ }
		}
		else_if = {
			limit = { NOT = { exists = scope:recipient.var:type60 } }
			set_chronicle_contents_with_index_effect = { INDEX = 60 TYPE = $TYPE$ CHAR = $CHAR$ TITLE = $TITLE$ FLAG_A = $FLAG_A$ FLAG_B = $FLAG_B$ FLAG_C = $FLAG_C$ FLAG_D = $FLAG_D$ FLAG_E = $FLAG_E$ }
		}
		else_if = {
			limit = { NOT = { exists = scope:recipient.var:type61 } }
			set_chronicle_contents_with_index_effect = { INDEX = 61 TYPE = $TYPE$ CHAR = $CHAR$ TITLE = $TITLE$ FLAG_A = $FLAG_A$ FLAG_B = $FLAG_B$ FLAG_C = $FLAG_C$ FLAG_D = $FLAG_D$ FLAG_E = $FLAG_E$ }
		}
		else_if = {
			limit = { NOT = { exists = scope:recipient.var:type62 } }
			set_chronicle_contents_with_index_effect = { INDEX = 62 TYPE = $TYPE$ CHAR = $CHAR$ TITLE = $TITLE$ FLAG_A = $FLAG_A$ FLAG_B = $FLAG_B$ FLAG_C = $FLAG_C$ FLAG_D = $FLAG_D$ FLAG_E = $FLAG_E$ }
		}
		else_if = {
			limit = { NOT = { exists = scope:recipient.var:type63 } }
			set_chronicle_contents_with_index_effect = { INDEX = 63 TYPE = $TYPE$ CHAR = $CHAR$ TITLE = $TITLE$ FLAG_A = $FLAG_A$ FLAG_B = $FLAG_B$ FLAG_C = $FLAG_C$ FLAG_D = $FLAG_D$ FLAG_E = $FLAG_E$ }
		}
		else_if = {
			limit = { NOT = { exists = scope:recipient.var:type64 } }
			set_chronicle_contents_with_index_effect = { INDEX = 64 TYPE = $TYPE$ CHAR = $CHAR$ TITLE = $TITLE$ FLAG_A = $FLAG_A$ FLAG_B = $FLAG_B$ FLAG_C = $FLAG_C$ FLAG_D = $FLAG_D$ FLAG_E = $FLAG_E$ }
		}
		else_if = {
			limit = { NOT = { exists = scope:recipient.var:type65 } }
			set_chronicle_contents_with_index_effect = { INDEX = 65 TYPE = $TYPE$ CHAR = $CHAR$ TITLE = $TITLE$ FLAG_A = $FLAG_A$ FLAG_B = $FLAG_B$ FLAG_C = $FLAG_C$ FLAG_D = $FLAG_D$ FLAG_E = $FLAG_E$ }
		}
		else_if = {
			limit = { NOT = { exists = scope:recipient.var:type66 } }
			set_chronicle_contents_with_index_effect = { INDEX = 66 TYPE = $TYPE$ CHAR = $CHAR$ TITLE = $TITLE$ FLAG_A = $FLAG_A$ FLAG_B = $FLAG_B$ FLAG_C = $FLAG_C$ FLAG_D = $FLAG_D$ FLAG_E = $FLAG_E$ }
		}
		else_if = {
			limit = { NOT = { exists = scope:recipient.var:type67 } }
			set_chronicle_contents_with_index_effect = { INDEX = 67 TYPE = $TYPE$ CHAR = $CHAR$ TITLE = $TITLE$ FLAG_A = $FLAG_A$ FLAG_B = $FLAG_B$ FLAG_C = $FLAG_C$ FLAG_D = $FLAG_D$ FLAG_E = $FLAG_E$ }
		}
		else_if = {
			limit = { NOT = { exists = scope:recipient.var:type68 } }
			set_chronicle_contents_with_index_effect = { INDEX = 68 TYPE = $TYPE$ CHAR = $CHAR$ TITLE = $TITLE$ FLAG_A = $FLAG_A$ FLAG_B = $FLAG_B$ FLAG_C = $FLAG_C$ FLAG_D = $FLAG_D$ FLAG_E = $FLAG_E$ }
		}
		else_if = {
			limit = { NOT = { exists = scope:recipient.var:type69 } }
			set_chronicle_contents_with_index_effect = { INDEX = 69 TYPE = $TYPE$ CHAR = $CHAR$ TITLE = $TITLE$ FLAG_A = $FLAG_A$ FLAG_B = $FLAG_B$ FLAG_C = $FLAG_C$ FLAG_D = $FLAG_D$ FLAG_E = $FLAG_E$ }
		}
		else_if = {
			limit = { NOT = { exists = scope:recipient.var:type70 } }
			set_chronicle_contents_with_index_effect = { INDEX = 70 TYPE = $TYPE$ CHAR = $CHAR$ TITLE = $TITLE$ FLAG_A = $FLAG_A$ FLAG_B = $FLAG_B$ FLAG_C = $FLAG_C$ FLAG_D = $FLAG_D$ FLAG_E = $FLAG_E$ }
		}
		else_if = {
			limit = { NOT = { exists = scope:recipient.var:type71 } }
			set_chronicle_contents_with_index_effect = { INDEX = 71 TYPE = $TYPE$ CHAR = $CHAR$ TITLE = $TITLE$ FLAG_A = $FLAG_A$ FLAG_B = $FLAG_B$ FLAG_C = $FLAG_C$ FLAG_D = $FLAG_D$ FLAG_E = $FLAG_E$ }
		}
		else_if = {
			limit = { NOT = { exists = scope:recipient.var:type72 } }
			set_chronicle_contents_with_index_effect = { INDEX = 72 TYPE = $TYPE$ CHAR = $CHAR$ TITLE = $TITLE$ FLAG_A = $FLAG_A$ FLAG_B = $FLAG_B$ FLAG_C = $FLAG_C$ FLAG_D = $FLAG_D$ FLAG_E = $FLAG_E$ }
		}
		else_if = {
			limit = { NOT = { exists = scope:recipient.var:type73 } }
			set_chronicle_contents_with_index_effect = { INDEX = 73 TYPE = $TYPE$ CHAR = $CHAR$ TITLE = $TITLE$ FLAG_A = $FLAG_A$ FLAG_B = $FLAG_B$ FLAG_C = $FLAG_C$ FLAG_D = $FLAG_D$ FLAG_E = $FLAG_E$ }
		}
		else_if = {
			limit = { NOT = { exists = scope:recipient.var:type74 } }
			set_chronicle_contents_with_index_effect = { INDEX = 74 TYPE = $TYPE$ CHAR = $CHAR$ TITLE = $TITLE$ FLAG_A = $FLAG_A$ FLAG_B = $FLAG_B$ FLAG_C = $FLAG_C$ FLAG_D = $FLAG_D$ FLAG_E = $FLAG_E$ }
		}
		else_if = {
			limit = { NOT = { exists = scope:recipient.var:type75 } }
			set_chronicle_contents_with_index_effect = { INDEX = 75 TYPE = $TYPE$ CHAR = $CHAR$ TITLE = $TITLE$ FLAG_A = $FLAG_A$ FLAG_B = $FLAG_B$ FLAG_C = $FLAG_C$ FLAG_D = $FLAG_D$ FLAG_E = $FLAG_E$ }
		}
		else_if = {
			limit = { NOT = { exists = scope:recipient.var:type76 } }
			set_chronicle_contents_with_index_effect = { INDEX = 76 TYPE = $TYPE$ CHAR = $CHAR$ TITLE = $TITLE$ FLAG_A = $FLAG_A$ FLAG_B = $FLAG_B$ FLAG_C = $FLAG_C$ FLAG_D = $FLAG_D$ FLAG_E = $FLAG_E$ }
		}
		else_if = {
			limit = { NOT = { exists = scope:recipient.var:type77 } }
			set_chronicle_contents_with_index_effect = { INDEX = 77 TYPE = $TYPE$ CHAR = $CHAR$ TITLE = $TITLE$ FLAG_A = $FLAG_A$ FLAG_B = $FLAG_B$ FLAG_C = $FLAG_C$ FLAG_D = $FLAG_D$ FLAG_E = $FLAG_E$ }
		}
		else_if = {
			limit = { NOT = { exists = scope:recipient.var:type78 } }
			set_chronicle_contents_with_index_effect = { INDEX = 78 TYPE = $TYPE$ CHAR = $CHAR$ TITLE = $TITLE$ FLAG_A = $FLAG_A$ FLAG_B = $FLAG_B$ FLAG_C = $FLAG_C$ FLAG_D = $FLAG_D$ FLAG_E = $FLAG_E$ }
		}
		else_if = {
			limit = { NOT = { exists = scope:recipient.var:type79 } }
			set_chronicle_contents_with_index_effect = { INDEX = 79 TYPE = $TYPE$ CHAR = $CHAR$ TITLE = $TITLE$ FLAG_A = $FLAG_A$ FLAG_B = $FLAG_B$ FLAG_C = $FLAG_C$ FLAG_D = $FLAG_D$ FLAG_E = $FLAG_E$ }
		}
		else_if = {
			limit = { NOT = { exists = scope:recipient.var:type80 } }
			set_chronicle_contents_with_index_effect = { INDEX = 80 TYPE = $TYPE$ CHAR = $CHAR$ TITLE = $TITLE$ FLAG_A = $FLAG_A$ FLAG_B = $FLAG_B$ FLAG_C = $FLAG_C$ FLAG_D = $FLAG_D$ FLAG_E = $FLAG_E$ }
		}
		else_if = {
			limit = { NOT = { exists = scope:recipient.var:type81 } }
			set_chronicle_contents_with_index_effect = { INDEX = 81 TYPE = $TYPE$ CHAR = $CHAR$ TITLE = $TITLE$ FLAG_A = $FLAG_A$ FLAG_B = $FLAG_B$ FLAG_C = $FLAG_C$ FLAG_D = $FLAG_D$ FLAG_E = $FLAG_E$ }
		}
		else_if = {
			limit = { NOT = { exists = scope:recipient.var:type82 } }
			set_chronicle_contents_with_index_effect = { INDEX = 82 TYPE = $TYPE$ CHAR = $CHAR$ TITLE = $TITLE$ FLAG_A = $FLAG_A$ FLAG_B = $FLAG_B$ FLAG_C = $FLAG_C$ FLAG_D = $FLAG_D$ FLAG_E = $FLAG_E$ }
		}
		else_if = {
			limit = { NOT = { exists = scope:recipient.var:type83 } }
			set_chronicle_contents_with_index_effect = { INDEX = 83 TYPE = $TYPE$ CHAR = $CHAR$ TITLE = $TITLE$ FLAG_A = $FLAG_A$ FLAG_B = $FLAG_B$ FLAG_C = $FLAG_C$ FLAG_D = $FLAG_D$ FLAG_E = $FLAG_E$ }
		}
		else_if = {
			limit = { NOT = { exists = scope:recipient.var:type84 } }
			set_chronicle_contents_with_index_effect = { INDEX = 84 TYPE = $TYPE$ CHAR = $CHAR$ TITLE = $TITLE$ FLAG_A = $FLAG_A$ FLAG_B = $FLAG_B$ FLAG_C = $FLAG_C$ FLAG_D = $FLAG_D$ FLAG_E = $FLAG_E$ }
		}
		else_if = {
			limit = { NOT = { exists = scope:recipient.var:type85 } }
			set_chronicle_contents_with_index_effect = { INDEX = 85 TYPE = $TYPE$ CHAR = $CHAR$ TITLE = $TITLE$ FLAG_A = $FLAG_A$ FLAG_B = $FLAG_B$ FLAG_C = $FLAG_C$ FLAG_D = $FLAG_D$ FLAG_E = $FLAG_E$ }
		}
		else_if = {
			limit = { NOT = { exists = scope:recipient.var:type86 } }
			set_chronicle_contents_with_index_effect = { INDEX = 86 TYPE = $TYPE$ CHAR = $CHAR$ TITLE = $TITLE$ FLAG_A = $FLAG_A$ FLAG_B = $FLAG_B$ FLAG_C = $FLAG_C$ FLAG_D = $FLAG_D$ FLAG_E = $FLAG_E$ }
		}
		else_if = {
			limit = { NOT = { exists = scope:recipient.var:type87 } }
			set_chronicle_contents_with_index_effect = { INDEX = 87 TYPE = $TYPE$ CHAR = $CHAR$ TITLE = $TITLE$ FLAG_A = $FLAG_A$ FLAG_B = $FLAG_B$ FLAG_C = $FLAG_C$ FLAG_D = $FLAG_D$ FLAG_E = $FLAG_E$ }
		}
		else_if = {
			limit = { NOT = { exists = scope:recipient.var:type88 } }
			set_chronicle_contents_with_index_effect = { INDEX = 88 TYPE = $TYPE$ CHAR = $CHAR$ TITLE = $TITLE$ FLAG_A = $FLAG_A$ FLAG_B = $FLAG_B$ FLAG_C = $FLAG_C$ FLAG_D = $FLAG_D$ FLAG_E = $FLAG_E$ }
		}
		else_if = {
			limit = { NOT = { exists = scope:recipient.var:type89 } }
			set_chronicle_contents_with_index_effect = { INDEX = 89 TYPE = $TYPE$ CHAR = $CHAR$ TITLE = $TITLE$ FLAG_A = $FLAG_A$ FLAG_B = $FLAG_B$ FLAG_C = $FLAG_C$ FLAG_D = $FLAG_D$ FLAG_E = $FLAG_E$ }
		}
		else_if = {
			limit = { NOT = { exists = scope:recipient.var:type90 } }
			set_chronicle_contents_with_index_effect = { INDEX = 90 TYPE = $TYPE$ CHAR = $CHAR$ TITLE = $TITLE$ FLAG_A = $FLAG_A$ FLAG_B = $FLAG_B$ FLAG_C = $FLAG_C$ FLAG_D = $FLAG_D$ FLAG_E = $FLAG_E$ }
		}
		else_if = {
			limit = { NOT = { exists = scope:recipient.var:type91 } }
			set_chronicle_contents_with_index_effect = { INDEX = 91 TYPE = $TYPE$ CHAR = $CHAR$ TITLE = $TITLE$ FLAG_A = $FLAG_A$ FLAG_B = $FLAG_B$ FLAG_C = $FLAG_C$ FLAG_D = $FLAG_D$ FLAG_E = $FLAG_E$ }
		}
		else_if = {
			limit = { NOT = { exists = scope:recipient.var:type92 } }
			set_chronicle_contents_with_index_effect = { INDEX = 92 TYPE = $TYPE$ CHAR = $CHAR$ TITLE = $TITLE$ FLAG_A = $FLAG_A$ FLAG_B = $FLAG_B$ FLAG_C = $FLAG_C$ FLAG_D = $FLAG_D$ FLAG_E = $FLAG_E$ }
		}
		else_if = {
			limit = { NOT = { exists = scope:recipient.var:type93 } }
			set_chronicle_contents_with_index_effect = { INDEX = 93 TYPE = $TYPE$ CHAR = $CHAR$ TITLE = $TITLE$ FLAG_A = $FLAG_A$ FLAG_B = $FLAG_B$ FLAG_C = $FLAG_C$ FLAG_D = $FLAG_D$ FLAG_E = $FLAG_E$ }
		}
		else_if = {
			limit = { NOT = { exists = scope:recipient.var:type94 } }
			set_chronicle_contents_with_index_effect = { INDEX = 94 TYPE = $TYPE$ CHAR = $CHAR$ TITLE = $TITLE$ FLAG_A = $FLAG_A$ FLAG_B = $FLAG_B$ FLAG_C = $FLAG_C$ FLAG_D = $FLAG_D$ FLAG_E = $FLAG_E$ }
		}
		else_if = {
			limit = { NOT = { exists = scope:recipient.var:type95 } }
			set_chronicle_contents_with_index_effect = { INDEX = 95 TYPE = $TYPE$ CHAR = $CHAR$ TITLE = $TITLE$ FLAG_A = $FLAG_A$ FLAG_B = $FLAG_B$ FLAG_C = $FLAG_C$ FLAG_D = $FLAG_D$ FLAG_E = $FLAG_E$ }
		}
		else_if = {
			limit = { NOT = { exists = scope:recipient.var:type96 } }
			set_chronicle_contents_with_index_effect = { INDEX = 96 TYPE = $TYPE$ CHAR = $CHAR$ TITLE = $TITLE$ FLAG_A = $FLAG_A$ FLAG_B = $FLAG_B$ FLAG_C = $FLAG_C$ FLAG_D = $FLAG_D$ FLAG_E = $FLAG_E$ }
		}
		else_if = {
			limit = { NOT = { exists = scope:recipient.var:type97 } }
			set_chronicle_contents_with_index_effect = { INDEX = 97 TYPE = $TYPE$ CHAR = $CHAR$ TITLE = $TITLE$ FLAG_A = $FLAG_A$ FLAG_B = $FLAG_B$ FLAG_C = $FLAG_C$ FLAG_D = $FLAG_D$ FLAG_E = $FLAG_E$ }
		}
		else_if = {
			limit = { NOT = { exists = scope:recipient.var:type98 } }
			set_chronicle_contents_with_index_effect = { INDEX = 98 TYPE = $TYPE$ CHAR = $CHAR$ TITLE = $TITLE$ FLAG_A = $FLAG_A$ FLAG_B = $FLAG_B$ FLAG_C = $FLAG_C$ FLAG_D = $FLAG_D$ FLAG_E = $FLAG_E$ }
		}
		else_if = {
			limit = { NOT = { exists = scope:recipient.var:type99 } }
			set_chronicle_contents_with_index_effect = { INDEX = 99 TYPE = $TYPE$ CHAR = $CHAR$ TITLE = $TITLE$ FLAG_A = $FLAG_A$ FLAG_B = $FLAG_B$ FLAG_C = $FLAG_C$ FLAG_D = $FLAG_D$ FLAG_E = $FLAG_E$ }
		}
		else_if = {
			limit = { NOT = { exists = scope:recipient.var:type100 } }
			set_chronicle_contents_with_index_effect = { INDEX = 100 TYPE = $TYPE$ CHAR = $CHAR$ TITLE = $TITLE$ FLAG_A = $FLAG_A$ FLAG_B = $FLAG_B$ FLAG_C = $FLAG_C$ FLAG_D = $FLAG_D$ FLAG_E = $FLAG_E$ }
		}
		else = {
			shift_chronicle_contents_with_index_effect = { INDEX1 = 1 INDEX2 = 2 }
			shift_chronicle_contents_with_index_effect = { INDEX1 = 2 INDEX2 = 3 }
			shift_chronicle_contents_with_index_effect = { INDEX1 = 3 INDEX2 = 4 }
			shift_chronicle_contents_with_index_effect = { INDEX1 = 4 INDEX2 = 5 }
			shift_chronicle_contents_with_index_effect = { INDEX1 = 5 INDEX2 = 6 }
			shift_chronicle_contents_with_index_effect = { INDEX1 = 6 INDEX2 = 7 }
			shift_chronicle_contents_with_index_effect = { INDEX1 = 7 INDEX2 = 8 }
			shift_chronicle_contents_with_index_effect = { INDEX1 = 8 INDEX2 = 9 }
			shift_chronicle_contents_with_index_effect = { INDEX1 = 9 INDEX2 = 10 }
			shift_chronicle_contents_with_index_effect = { INDEX1 = 10 INDEX2 = 11 }
			shift_chronicle_contents_with_index_effect = { INDEX1 = 11 INDEX2 = 12 }
			shift_chronicle_contents_with_index_effect = { INDEX1 = 12 INDEX2 = 13 }
			shift_chronicle_contents_with_index_effect = { INDEX1 = 13 INDEX2 = 14 }
			shift_chronicle_contents_with_index_effect = { INDEX1 = 14 INDEX2 = 15 }
			shift_chronicle_contents_with_index_effect = { INDEX1 = 15 INDEX2 = 16 }
			shift_chronicle_contents_with_index_effect = { INDEX1 = 16 INDEX2 = 17 }
			shift_chronicle_contents_with_index_effect = { INDEX1 = 17 INDEX2 = 18 }
			shift_chronicle_contents_with_index_effect = { INDEX1 = 18 INDEX2 = 19 }
			shift_chronicle_contents_with_index_effect = { INDEX1 = 19 INDEX2 = 20 }
			shift_chronicle_contents_with_index_effect = { INDEX1 = 20 INDEX2 = 21 }
			shift_chronicle_contents_with_index_effect = { INDEX1 = 21 INDEX2 = 22 }
			shift_chronicle_contents_with_index_effect = { INDEX1 = 22 INDEX2 = 23 }
			shift_chronicle_contents_with_index_effect = { INDEX1 = 23 INDEX2 = 24 }
			shift_chronicle_contents_with_index_effect = { INDEX1 = 24 INDEX2 = 25 }
			shift_chronicle_contents_with_index_effect = { INDEX1 = 25 INDEX2 = 26 }
			shift_chronicle_contents_with_index_effect = { INDEX1 = 26 INDEX2 = 27 }
			shift_chronicle_contents_with_index_effect = { INDEX1 = 27 INDEX2 = 28 }
			shift_chronicle_contents_with_index_effect = { INDEX1 = 28 INDEX2 = 29 }
			shift_chronicle_contents_with_index_effect = { INDEX1 = 29 INDEX2 = 30 }
			shift_chronicle_contents_with_index_effect = { INDEX1 = 30 INDEX2 = 31 }
			shift_chronicle_contents_with_index_effect = { INDEX1 = 31 INDEX2 = 32 }
			shift_chronicle_contents_with_index_effect = { INDEX1 = 32 INDEX2 = 33 }
			shift_chronicle_contents_with_index_effect = { INDEX1 = 33 INDEX2 = 34 }
			shift_chronicle_contents_with_index_effect = { INDEX1 = 34 INDEX2 = 35 }
			shift_chronicle_contents_with_index_effect = { INDEX1 = 35 INDEX2 = 36 }
			shift_chronicle_contents_with_index_effect = { INDEX1 = 36 INDEX2 = 37 }
			shift_chronicle_contents_with_index_effect = { INDEX1 = 37 INDEX2 = 38 }
			shift_chronicle_contents_with_index_effect = { INDEX1 = 38 INDEX2 = 39 }
			shift_chronicle_contents_with_index_effect = { INDEX1 = 39 INDEX2 = 40 }
			shift_chronicle_contents_with_index_effect = { INDEX1 = 40 INDEX2 = 41 }
			shift_chronicle_contents_with_index_effect = { INDEX1 = 41 INDEX2 = 42 }
			shift_chronicle_contents_with_index_effect = { INDEX1 = 42 INDEX2 = 43 }
			shift_chronicle_contents_with_index_effect = { INDEX1 = 43 INDEX2 = 44 }
			shift_chronicle_contents_with_index_effect = { INDEX1 = 44 INDEX2 = 45 }
			shift_chronicle_contents_with_index_effect = { INDEX1 = 45 INDEX2 = 46 }
			shift_chronicle_contents_with_index_effect = { INDEX1 = 46 INDEX2 = 47 }
			shift_chronicle_contents_with_index_effect = { INDEX1 = 47 INDEX2 = 48 }
			shift_chronicle_contents_with_index_effect = { INDEX1 = 48 INDEX2 = 49 }
			shift_chronicle_contents_with_index_effect = { INDEX1 = 49 INDEX2 = 50 }
			shift_chronicle_contents_with_index_effect = { INDEX1 = 50 INDEX2 = 51 }
			shift_chronicle_contents_with_index_effect = { INDEX1 = 51 INDEX2 = 52 }
			shift_chronicle_contents_with_index_effect = { INDEX1 = 52 INDEX2 = 53 }
			shift_chronicle_contents_with_index_effect = { INDEX1 = 53 INDEX2 = 54 }
			shift_chronicle_contents_with_index_effect = { INDEX1 = 54 INDEX2 = 55 }
			shift_chronicle_contents_with_index_effect = { INDEX1 = 55 INDEX2 = 56 }
			shift_chronicle_contents_with_index_effect = { INDEX1 = 56 INDEX2 = 57 }
			shift_chronicle_contents_with_index_effect = { INDEX1 = 57 INDEX2 = 58 }
			shift_chronicle_contents_with_index_effect = { INDEX1 = 58 INDEX2 = 59 }
			shift_chronicle_contents_with_index_effect = { INDEX1 = 59 INDEX2 = 60 }
			shift_chronicle_contents_with_index_effect = { INDEX1 = 60 INDEX2 = 61 }
			shift_chronicle_contents_with_index_effect = { INDEX1 = 61 INDEX2 = 62 }
			shift_chronicle_contents_with_index_effect = { INDEX1 = 62 INDEX2 = 63 }
			shift_chronicle_contents_with_index_effect = { INDEX1 = 63 INDEX2 = 64 }
			shift_chronicle_contents_with_index_effect = { INDEX1 = 64 INDEX2 = 65 }
			shift_chronicle_contents_with_index_effect = { INDEX1 = 65 INDEX2 = 66 }
			shift_chronicle_contents_with_index_effect = { INDEX1 = 66 INDEX2 = 67 }
			shift_chronicle_contents_with_index_effect = { INDEX1 = 67 INDEX2 = 68 }
			shift_chronicle_contents_with_index_effect = { INDEX1 = 68 INDEX2 = 69 }
			shift_chronicle_contents_with_index_effect = { INDEX1 = 69 INDEX2 = 70 }
			shift_chronicle_contents_with_index_effect = { INDEX1 = 70 INDEX2 = 71 }
			shift_chronicle_contents_with_index_effect = { INDEX1 = 71 INDEX2 = 72 }
			shift_chronicle_contents_with_index_effect = { INDEX1 = 72 INDEX2 = 73 }
			shift_chronicle_contents_with_index_effect = { INDEX1 = 73 INDEX2 = 74 }
			shift_chronicle_contents_with_index_effect = { INDEX1 = 74 INDEX2 = 75 }
			shift_chronicle_contents_with_index_effect = { INDEX1 = 75 INDEX2 = 76 }
			shift_chronicle_contents_with_index_effect = { INDEX1 = 76 INDEX2 = 77 }
			shift_chronicle_contents_with_index_effect = { INDEX1 = 77 INDEX2 = 78 }
			shift_chronicle_contents_with_index_effect = { INDEX1 = 78 INDEX2 = 79 }
			shift_chronicle_contents_with_index_effect = { INDEX1 = 79 INDEX2 = 80 }
			shift_chronicle_contents_with_index_effect = { INDEX1 = 80 INDEX2 = 81 }
			shift_chronicle_contents_with_index_effect = { INDEX1 = 81 INDEX2 = 82 }
			shift_chronicle_contents_with_index_effect = { INDEX1 = 82 INDEX2 = 83 }
			shift_chronicle_contents_with_index_effect = { INDEX1 = 83 INDEX2 = 84 }
			shift_chronicle_contents_with_index_effect = { INDEX1 = 84 INDEX2 = 85 }
			shift_chronicle_contents_with_index_effect = { INDEX1 = 85 INDEX2 = 86 }
			shift_chronicle_contents_with_index_effect = { INDEX1 = 86 INDEX2 = 87 }
			shift_chronicle_contents_with_index_effect = { INDEX1 = 87 INDEX2 = 88 }
			shift_chronicle_contents_with_index_effect = { INDEX1 = 88 INDEX2 = 89 }
			shift_chronicle_contents_with_index_effect = { INDEX1 = 89 INDEX2 = 90 }
			shift_chronicle_contents_with_index_effect = { INDEX1 = 90 INDEX2 = 91 }
			shift_chronicle_contents_with_index_effect = { INDEX1 = 91 INDEX2 = 92 }
			shift_chronicle_contents_with_index_effect = { INDEX1 = 92 INDEX2 = 93 }
			shift_chronicle_contents_with_index_effect = { INDEX1 = 93 INDEX2 = 94 }
			shift_chronicle_contents_with_index_effect = { INDEX1 = 94 INDEX2 = 95 }
			shift_chronicle_contents_with_index_effect = { INDEX1 = 95 INDEX2 = 96 }
			shift_chronicle_contents_with_index_effect = { INDEX1 = 96 INDEX2 = 97 }
			shift_chronicle_contents_with_index_effect = { INDEX1 = 97 INDEX2 = 98 }
			shift_chronicle_contents_with_index_effect = { INDEX1 = 98 INDEX2 = 99 }
			shift_chronicle_contents_with_index_effect = { INDEX1 = 99 INDEX2 = 100 }
			set_chronicle_contents_with_index_effect = { INDEX = 100 TYPE = $TYPE$ CHAR = $CHAR$ TITLE = $TITLE$ FLAG_A = $FLAG_A$ FLAG_B = $FLAG_B$ FLAG_C = $FLAG_C$ FLAG_D = $FLAG_D$ FLAG_E = $FLAG_E$ }
		}
	}

}


set_chronicle_contents_with_index_effect = {

	scope:recipient = {
		set_variable = { name = year$INDEX$ value = var:year }
		set_variable = { name = month$INDEX$ value = var:month }
		set_variable = { name = day$INDEX$ value = var:day }
		set_variable = { name = age$INDEX$ value = age }
		set_variable = { name = type$INDEX$ value = flag:$TYPE$ }
		set_variable = { name = char$INDEX$ value = $CHAR$ }
		set_variable = { name = title$INDEX$ value = $TITLE$ }
		set_variable = { name = flag_a$INDEX$ value = $FLAG_A$ }
		set_variable = { name = flag_b$INDEX$ value = $FLAG_B$ }
		set_variable = { name = flag_c$INDEX$ value = $FLAG_C$ }
		set_variable = { name = flag_d$INDEX$ value = $FLAG_D$ }
		set_variable = { name = flag_e$INDEX$ value = $FLAG_E$ }
	}

}


shift_chronicle_contents_with_index_effect = {

	# For version 1.1.0
	if = {
		limit = {
			exists = global_var:chronicle_mod_version
			global_var:chronicle_mod_version < 1.20
		}
		scope:recipient = {
			remove_chronicle_contents_with_index_effect = { INDEX = $INDEX1$ }

			set_variable = { name = year$INDEX1$ value = var:year$INDEX2$ }
			set_variable = { name = month$INDEX1$ value = var:month$INDEX2$ }
			set_variable = { name = day$INDEX1$ value = var:day$INDEX2$ }
			set_variable = { name = age$INDEX1$ value = var:age$INDEX2$ }
			set_variable = { name = type$INDEX1$ value = var:type$INDEX2$ }
			set_variable = { name = char$INDEX1$ value = var:char$INDEX2$ }
			set_variable = { name = title$INDEX1$ value = var:title$INDEX2$ }

			if = {
				limit = { exists = var:flag$INDEX2$ }
				set_variable = { name = flag$INDEX1$ value = var:flag$INDEX2$ }
			}
			if = {
				limit = { exists = var:flag_a$INDEX2$ }
				set_variable = { name = flag_a$INDEX1$ value = var:flag_a$INDEX2$ }
			}
			if = {
				limit = { exists = var:flag_b$INDEX2$ }
				set_variable = { name = flag_b$INDEX1$ value = var:flag_b$INDEX2$ }
			}
			if = {
				limit = { exists = var:flag_c$INDEX2$ }
				set_variable = { name = flag_c$INDEX1$ value = var:flag_c$INDEX2$ }
			}
			if = {
				limit = { exists = var:flag_d$INDEX2$ }
				set_variable = { name = flag_d$INDEX1$ value = var:flag_d$INDEX2$ }
			}
			if = {
				limit = { exists = var:flag_e$INDEX2$ }
				set_variable = { name = flag_e$INDEX1$ value = var:flag_e$INDEX2$ }
			}

			remove_chronicle_contents_with_index_effect = { INDEX = $INDEX2$ }
		}
	}
	# For version 1.2.0 or later
	else = {
		scope:recipient = {
			set_variable = { name = year$INDEX1$ value = var:year$INDEX2$ }
			set_variable = { name = month$INDEX1$ value = var:month$INDEX2$ }
			set_variable = { name = day$INDEX1$ value = var:day$INDEX2$ }
			set_variable = { name = age$INDEX1$ value = var:age$INDEX2$ }
			set_variable = { name = type$INDEX1$ value = var:type$INDEX2$ }
			set_variable = { name = char$INDEX1$ value = var:char$INDEX2$ }
			set_variable = { name = title$INDEX1$ value = var:title$INDEX2$ }
			set_variable = { name = flag_a$INDEX1$ value = var:flag_a$INDEX2$ }
			set_variable = { name = flag_b$INDEX1$ value = var:flag_b$INDEX2$ }
			set_variable = { name = flag_c$INDEX1$ value = var:flag_c$INDEX2$ }
			set_variable = { name = flag_d$INDEX1$ value = var:flag_d$INDEX2$ }
			set_variable = { name = flag_e$INDEX1$ value = var:flag_e$INDEX2$ }

			remove_chronicle_contents_with_index_effect = { INDEX = $INDEX2$ }
		}
	}

}


remove_chronicle_contents_with_index_effect = {

	# For version 1.1.0
	if = {
		limit = {
			exists = global_var:chronicle_mod_version
			global_var:chronicle_mod_version < 1.20
		}
		scope:recipient = {
			remove_variable = year$INDEX$
			remove_variable = month$INDEX$
			remove_variable = day$INDEX$
			remove_variable = age$INDEX$
			remove_variable = type$INDEX$
			remove_variable = char$INDEX$
			remove_variable = title$INDEX$
			remove_variable = flag_a$INDEX$
			remove_variable = flag_b$INDEX$
			remove_variable = flag_c$INDEX$
			remove_variable = flag_d$INDEX$
			remove_variable = flag_e$INDEX$

			remove_variable = flag$INDEX$
		}
	}
	# For version 1.2.0
	else = {
		scope:recipient = {
			remove_variable = year$INDEX$
			remove_variable = month$INDEX$
			remove_variable = day$INDEX$
			remove_variable = age$INDEX$
			remove_variable = type$INDEX$
			remove_variable = char$INDEX$
			remove_variable = title$INDEX$
			remove_variable = flag_a$INDEX$
			remove_variable = flag_b$INDEX$
			remove_variable = flag_c$INDEX$
			remove_variable = flag_d$INDEX$
			remove_variable = flag_e$INDEX$
		}
	}

}
