﻿ChronicleTraitVerb1 = {
	type = character

	text = {
		trigger = {
			exists = var:type1
			exists = var:flag_a1
			var:type1 = flag:trait
			var:flag_a1 = flag:gain
		}
		localization_key = chronicle_translation_trait_gain
	}
	text = {
		trigger = {
			exists = var:type1
			exists = var:flag_a1
			var:type1 = flag:trait
			var:flag_a1 = flag:lose
		}
		localization_key = chronicle_translation_trait_lose
	}
	text = {
		trigger = {
			exists = var:type1
			exists = var:flag_a1
			var:type1 = flag:trait
			var:flag_a1 = flag:have
		}
		localization_key = chronicle_translation_trait_have
	}
}

ChronicleTraitVerb2 = {
	type = character

	text = {
		trigger = {
			exists = var:type2
			exists = var:flag_a2
			var:type2 = flag:trait
			var:flag_a2 = flag:gain
		}
		localization_key = chronicle_translation_trait_gain
	}
	text = {
		trigger = {
			exists = var:type2
			exists = var:flag_a2
			var:type2 = flag:trait
			var:flag_a2 = flag:lose
		}
		localization_key = chronicle_translation_trait_lose
	}
	text = {
		trigger = {
			exists = var:type2
			exists = var:flag_a2
			var:type2 = flag:trait
			var:flag_a2 = flag:have
		}
		localization_key = chronicle_translation_trait_have
	}
}

ChronicleTraitVerb3 = {
	type = character

	text = {
		trigger = {
			exists = var:type3
			exists = var:flag_a3
			var:type3 = flag:trait
			var:flag_a3 = flag:gain
		}
		localization_key = chronicle_translation_trait_gain
	}
	text = {
		trigger = {
			exists = var:type3
			exists = var:flag_a3
			var:type3 = flag:trait
			var:flag_a3 = flag:lose
		}
		localization_key = chronicle_translation_trait_lose
	}
	text = {
		trigger = {
			exists = var:type3
			exists = var:flag_a3
			var:type3 = flag:trait
			var:flag_a3 = flag:have
		}
		localization_key = chronicle_translation_trait_have
	}
}

ChronicleTraitVerb4 = {
	type = character

	text = {
		trigger = {
			exists = var:type4
			exists = var:flag_a4
			var:type4 = flag:trait
			var:flag_a4 = flag:gain
		}
		localization_key = chronicle_translation_trait_gain
	}
	text = {
		trigger = {
			exists = var:type4
			exists = var:flag_a4
			var:type4 = flag:trait
			var:flag_a4 = flag:lose
		}
		localization_key = chronicle_translation_trait_lose
	}
	text = {
		trigger = {
			exists = var:type4
			exists = var:flag_a4
			var:type4 = flag:trait
			var:flag_a4 = flag:have
		}
		localization_key = chronicle_translation_trait_have
	}
}

ChronicleTraitVerb5 = {
	type = character

	text = {
		trigger = {
			exists = var:type5
			exists = var:flag_a5
			var:type5 = flag:trait
			var:flag_a5 = flag:gain
		}
		localization_key = chronicle_translation_trait_gain
	}
	text = {
		trigger = {
			exists = var:type5
			exists = var:flag_a5
			var:type5 = flag:trait
			var:flag_a5 = flag:lose
		}
		localization_key = chronicle_translation_trait_lose
	}
	text = {
		trigger = {
			exists = var:type5
			exists = var:flag_a5
			var:type5 = flag:trait
			var:flag_a5 = flag:have
		}
		localization_key = chronicle_translation_trait_have
	}
}

ChronicleTraitVerb6 = {
	type = character

	text = {
		trigger = {
			exists = var:type6
			exists = var:flag_a6
			var:type6 = flag:trait
			var:flag_a6 = flag:gain
		}
		localization_key = chronicle_translation_trait_gain
	}
	text = {
		trigger = {
			exists = var:type6
			exists = var:flag_a6
			var:type6 = flag:trait
			var:flag_a6 = flag:lose
		}
		localization_key = chronicle_translation_trait_lose
	}
	text = {
		trigger = {
			exists = var:type6
			exists = var:flag_a6
			var:type6 = flag:trait
			var:flag_a6 = flag:have
		}
		localization_key = chronicle_translation_trait_have
	}
}

ChronicleTraitVerb7 = {
	type = character

	text = {
		trigger = {
			exists = var:type7
			exists = var:flag_a7
			var:type7 = flag:trait
			var:flag_a7 = flag:gain
		}
		localization_key = chronicle_translation_trait_gain
	}
	text = {
		trigger = {
			exists = var:type7
			exists = var:flag_a7
			var:type7 = flag:trait
			var:flag_a7 = flag:lose
		}
		localization_key = chronicle_translation_trait_lose
	}
	text = {
		trigger = {
			exists = var:type7
			exists = var:flag_a7
			var:type7 = flag:trait
			var:flag_a7 = flag:have
		}
		localization_key = chronicle_translation_trait_have
	}
}

ChronicleTraitVerb8 = {
	type = character

	text = {
		trigger = {
			exists = var:type8
			exists = var:flag_a8
			var:type8 = flag:trait
			var:flag_a8 = flag:gain
		}
		localization_key = chronicle_translation_trait_gain
	}
	text = {
		trigger = {
			exists = var:type8
			exists = var:flag_a8
			var:type8 = flag:trait
			var:flag_a8 = flag:lose
		}
		localization_key = chronicle_translation_trait_lose
	}
	text = {
		trigger = {
			exists = var:type8
			exists = var:flag_a8
			var:type8 = flag:trait
			var:flag_a8 = flag:have
		}
		localization_key = chronicle_translation_trait_have
	}
}

ChronicleTraitVerb9 = {
	type = character

	text = {
		trigger = {
			exists = var:type9
			exists = var:flag_a9
			var:type9 = flag:trait
			var:flag_a9 = flag:gain
		}
		localization_key = chronicle_translation_trait_gain
	}
	text = {
		trigger = {
			exists = var:type9
			exists = var:flag_a9
			var:type9 = flag:trait
			var:flag_a9 = flag:lose
		}
		localization_key = chronicle_translation_trait_lose
	}
	text = {
		trigger = {
			exists = var:type9
			exists = var:flag_a9
			var:type9 = flag:trait
			var:flag_a9 = flag:have
		}
		localization_key = chronicle_translation_trait_have
	}
}

ChronicleTraitVerb10 = {
	type = character

	text = {
		trigger = {
			exists = var:type10
			exists = var:flag_a10
			var:type10 = flag:trait
			var:flag_a10 = flag:gain
		}
		localization_key = chronicle_translation_trait_gain
	}
	text = {
		trigger = {
			exists = var:type10
			exists = var:flag_a10
			var:type10 = flag:trait
			var:flag_a10 = flag:lose
		}
		localization_key = chronicle_translation_trait_lose
	}
	text = {
		trigger = {
			exists = var:type10
			exists = var:flag_a10
			var:type10 = flag:trait
			var:flag_a10 = flag:have
		}
		localization_key = chronicle_translation_trait_have
	}
}

ChronicleTraitVerb11 = {
	type = character

	text = {
		trigger = {
			exists = var:type11
			exists = var:flag_a11
			var:type11 = flag:trait
			var:flag_a11 = flag:gain
		}
		localization_key = chronicle_translation_trait_gain
	}
	text = {
		trigger = {
			exists = var:type11
			exists = var:flag_a11
			var:type11 = flag:trait
			var:flag_a11 = flag:lose
		}
		localization_key = chronicle_translation_trait_lose
	}
	text = {
		trigger = {
			exists = var:type11
			exists = var:flag_a11
			var:type11 = flag:trait
			var:flag_a11 = flag:have
		}
		localization_key = chronicle_translation_trait_have
	}
}

ChronicleTraitVerb12 = {
	type = character

	text = {
		trigger = {
			exists = var:type12
			exists = var:flag_a12
			var:type12 = flag:trait
			var:flag_a12 = flag:gain
		}
		localization_key = chronicle_translation_trait_gain
	}
	text = {
		trigger = {
			exists = var:type12
			exists = var:flag_a12
			var:type12 = flag:trait
			var:flag_a12 = flag:lose
		}
		localization_key = chronicle_translation_trait_lose
	}
	text = {
		trigger = {
			exists = var:type12
			exists = var:flag_a12
			var:type12 = flag:trait
			var:flag_a12 = flag:have
		}
		localization_key = chronicle_translation_trait_have
	}
}

ChronicleTraitVerb13 = {
	type = character

	text = {
		trigger = {
			exists = var:type13
			exists = var:flag_a13
			var:type13 = flag:trait
			var:flag_a13 = flag:gain
		}
		localization_key = chronicle_translation_trait_gain
	}
	text = {
		trigger = {
			exists = var:type13
			exists = var:flag_a13
			var:type13 = flag:trait
			var:flag_a13 = flag:lose
		}
		localization_key = chronicle_translation_trait_lose
	}
	text = {
		trigger = {
			exists = var:type13
			exists = var:flag_a13
			var:type13 = flag:trait
			var:flag_a13 = flag:have
		}
		localization_key = chronicle_translation_trait_have
	}
}

ChronicleTraitVerb14 = {
	type = character

	text = {
		trigger = {
			exists = var:type14
			exists = var:flag_a14
			var:type14 = flag:trait
			var:flag_a14 = flag:gain
		}
		localization_key = chronicle_translation_trait_gain
	}
	text = {
		trigger = {
			exists = var:type14
			exists = var:flag_a14
			var:type14 = flag:trait
			var:flag_a14 = flag:lose
		}
		localization_key = chronicle_translation_trait_lose
	}
	text = {
		trigger = {
			exists = var:type14
			exists = var:flag_a14
			var:type14 = flag:trait
			var:flag_a14 = flag:have
		}
		localization_key = chronicle_translation_trait_have
	}
}

ChronicleTraitVerb15 = {
	type = character

	text = {
		trigger = {
			exists = var:type15
			exists = var:flag_a15
			var:type15 = flag:trait
			var:flag_a15 = flag:gain
		}
		localization_key = chronicle_translation_trait_gain
	}
	text = {
		trigger = {
			exists = var:type15
			exists = var:flag_a15
			var:type15 = flag:trait
			var:flag_a15 = flag:lose
		}
		localization_key = chronicle_translation_trait_lose
	}
	text = {
		trigger = {
			exists = var:type15
			exists = var:flag_a15
			var:type15 = flag:trait
			var:flag_a15 = flag:have
		}
		localization_key = chronicle_translation_trait_have
	}
}

ChronicleTraitVerb16 = {
	type = character

	text = {
		trigger = {
			exists = var:type16
			exists = var:flag_a16
			var:type16 = flag:trait
			var:flag_a16 = flag:gain
		}
		localization_key = chronicle_translation_trait_gain
	}
	text = {
		trigger = {
			exists = var:type16
			exists = var:flag_a16
			var:type16 = flag:trait
			var:flag_a16 = flag:lose
		}
		localization_key = chronicle_translation_trait_lose
	}
	text = {
		trigger = {
			exists = var:type16
			exists = var:flag_a16
			var:type16 = flag:trait
			var:flag_a16 = flag:have
		}
		localization_key = chronicle_translation_trait_have
	}
}

ChronicleTraitVerb17 = {
	type = character

	text = {
		trigger = {
			exists = var:type17
			exists = var:flag_a17
			var:type17 = flag:trait
			var:flag_a17 = flag:gain
		}
		localization_key = chronicle_translation_trait_gain
	}
	text = {
		trigger = {
			exists = var:type17
			exists = var:flag_a17
			var:type17 = flag:trait
			var:flag_a17 = flag:lose
		}
		localization_key = chronicle_translation_trait_lose
	}
	text = {
		trigger = {
			exists = var:type17
			exists = var:flag_a17
			var:type17 = flag:trait
			var:flag_a17 = flag:have
		}
		localization_key = chronicle_translation_trait_have
	}
}

ChronicleTraitVerb18 = {
	type = character

	text = {
		trigger = {
			exists = var:type18
			exists = var:flag_a18
			var:type18 = flag:trait
			var:flag_a18 = flag:gain
		}
		localization_key = chronicle_translation_trait_gain
	}
	text = {
		trigger = {
			exists = var:type18
			exists = var:flag_a18
			var:type18 = flag:trait
			var:flag_a18 = flag:lose
		}
		localization_key = chronicle_translation_trait_lose
	}
	text = {
		trigger = {
			exists = var:type18
			exists = var:flag_a18
			var:type18 = flag:trait
			var:flag_a18 = flag:have
		}
		localization_key = chronicle_translation_trait_have
	}
}

ChronicleTraitVerb19 = {
	type = character

	text = {
		trigger = {
			exists = var:type19
			exists = var:flag_a19
			var:type19 = flag:trait
			var:flag_a19 = flag:gain
		}
		localization_key = chronicle_translation_trait_gain
	}
	text = {
		trigger = {
			exists = var:type19
			exists = var:flag_a19
			var:type19 = flag:trait
			var:flag_a19 = flag:lose
		}
		localization_key = chronicle_translation_trait_lose
	}
	text = {
		trigger = {
			exists = var:type19
			exists = var:flag_a19
			var:type19 = flag:trait
			var:flag_a19 = flag:have
		}
		localization_key = chronicle_translation_trait_have
	}
}

ChronicleTraitVerb20 = {
	type = character

	text = {
		trigger = {
			exists = var:type20
			exists = var:flag_a20
			var:type20 = flag:trait
			var:flag_a20 = flag:gain
		}
		localization_key = chronicle_translation_trait_gain
	}
	text = {
		trigger = {
			exists = var:type20
			exists = var:flag_a20
			var:type20 = flag:trait
			var:flag_a20 = flag:lose
		}
		localization_key = chronicle_translation_trait_lose
	}
	text = {
		trigger = {
			exists = var:type20
			exists = var:flag_a20
			var:type20 = flag:trait
			var:flag_a20 = flag:have
		}
		localization_key = chronicle_translation_trait_have
	}
}

ChronicleTraitVerb21 = {
	type = character

	text = {
		trigger = {
			exists = var:type21
			exists = var:flag_a21
			var:type21 = flag:trait
			var:flag_a21 = flag:gain
		}
		localization_key = chronicle_translation_trait_gain
	}
	text = {
		trigger = {
			exists = var:type21
			exists = var:flag_a21
			var:type21 = flag:trait
			var:flag_a21 = flag:lose
		}
		localization_key = chronicle_translation_trait_lose
	}
	text = {
		trigger = {
			exists = var:type21
			exists = var:flag_a21
			var:type21 = flag:trait
			var:flag_a21 = flag:have
		}
		localization_key = chronicle_translation_trait_have
	}
}

ChronicleTraitVerb22 = {
	type = character

	text = {
		trigger = {
			exists = var:type22
			exists = var:flag_a22
			var:type22 = flag:trait
			var:flag_a22 = flag:gain
		}
		localization_key = chronicle_translation_trait_gain
	}
	text = {
		trigger = {
			exists = var:type22
			exists = var:flag_a22
			var:type22 = flag:trait
			var:flag_a22 = flag:lose
		}
		localization_key = chronicle_translation_trait_lose
	}
	text = {
		trigger = {
			exists = var:type22
			exists = var:flag_a22
			var:type22 = flag:trait
			var:flag_a22 = flag:have
		}
		localization_key = chronicle_translation_trait_have
	}
}

ChronicleTraitVerb23 = {
	type = character

	text = {
		trigger = {
			exists = var:type23
			exists = var:flag_a23
			var:type23 = flag:trait
			var:flag_a23 = flag:gain
		}
		localization_key = chronicle_translation_trait_gain
	}
	text = {
		trigger = {
			exists = var:type23
			exists = var:flag_a23
			var:type23 = flag:trait
			var:flag_a23 = flag:lose
		}
		localization_key = chronicle_translation_trait_lose
	}
	text = {
		trigger = {
			exists = var:type23
			exists = var:flag_a23
			var:type23 = flag:trait
			var:flag_a23 = flag:have
		}
		localization_key = chronicle_translation_trait_have
	}
}

ChronicleTraitVerb24 = {
	type = character

	text = {
		trigger = {
			exists = var:type24
			exists = var:flag_a24
			var:type24 = flag:trait
			var:flag_a24 = flag:gain
		}
		localization_key = chronicle_translation_trait_gain
	}
	text = {
		trigger = {
			exists = var:type24
			exists = var:flag_a24
			var:type24 = flag:trait
			var:flag_a24 = flag:lose
		}
		localization_key = chronicle_translation_trait_lose
	}
	text = {
		trigger = {
			exists = var:type24
			exists = var:flag_a24
			var:type24 = flag:trait
			var:flag_a24 = flag:have
		}
		localization_key = chronicle_translation_trait_have
	}
}

ChronicleTraitVerb25 = {
	type = character

	text = {
		trigger = {
			exists = var:type25
			exists = var:flag_a25
			var:type25 = flag:trait
			var:flag_a25 = flag:gain
		}
		localization_key = chronicle_translation_trait_gain
	}
	text = {
		trigger = {
			exists = var:type25
			exists = var:flag_a25
			var:type25 = flag:trait
			var:flag_a25 = flag:lose
		}
		localization_key = chronicle_translation_trait_lose
	}
	text = {
		trigger = {
			exists = var:type25
			exists = var:flag_a25
			var:type25 = flag:trait
			var:flag_a25 = flag:have
		}
		localization_key = chronicle_translation_trait_have
	}
}

ChronicleTraitVerb26 = {
	type = character

	text = {
		trigger = {
			exists = var:type26
			exists = var:flag_a26
			var:type26 = flag:trait
			var:flag_a26 = flag:gain
		}
		localization_key = chronicle_translation_trait_gain
	}
	text = {
		trigger = {
			exists = var:type26
			exists = var:flag_a26
			var:type26 = flag:trait
			var:flag_a26 = flag:lose
		}
		localization_key = chronicle_translation_trait_lose
	}
	text = {
		trigger = {
			exists = var:type26
			exists = var:flag_a26
			var:type26 = flag:trait
			var:flag_a26 = flag:have
		}
		localization_key = chronicle_translation_trait_have
	}
}

ChronicleTraitVerb27 = {
	type = character

	text = {
		trigger = {
			exists = var:type27
			exists = var:flag_a27
			var:type27 = flag:trait
			var:flag_a27 = flag:gain
		}
		localization_key = chronicle_translation_trait_gain
	}
	text = {
		trigger = {
			exists = var:type27
			exists = var:flag_a27
			var:type27 = flag:trait
			var:flag_a27 = flag:lose
		}
		localization_key = chronicle_translation_trait_lose
	}
	text = {
		trigger = {
			exists = var:type27
			exists = var:flag_a27
			var:type27 = flag:trait
			var:flag_a27 = flag:have
		}
		localization_key = chronicle_translation_trait_have
	}
}

ChronicleTraitVerb28 = {
	type = character

	text = {
		trigger = {
			exists = var:type28
			exists = var:flag_a28
			var:type28 = flag:trait
			var:flag_a28 = flag:gain
		}
		localization_key = chronicle_translation_trait_gain
	}
	text = {
		trigger = {
			exists = var:type28
			exists = var:flag_a28
			var:type28 = flag:trait
			var:flag_a28 = flag:lose
		}
		localization_key = chronicle_translation_trait_lose
	}
	text = {
		trigger = {
			exists = var:type28
			exists = var:flag_a28
			var:type28 = flag:trait
			var:flag_a28 = flag:have
		}
		localization_key = chronicle_translation_trait_have
	}
}

ChronicleTraitVerb29 = {
	type = character

	text = {
		trigger = {
			exists = var:type29
			exists = var:flag_a29
			var:type29 = flag:trait
			var:flag_a29 = flag:gain
		}
		localization_key = chronicle_translation_trait_gain
	}
	text = {
		trigger = {
			exists = var:type29
			exists = var:flag_a29
			var:type29 = flag:trait
			var:flag_a29 = flag:lose
		}
		localization_key = chronicle_translation_trait_lose
	}
	text = {
		trigger = {
			exists = var:type29
			exists = var:flag_a29
			var:type29 = flag:trait
			var:flag_a29 = flag:have
		}
		localization_key = chronicle_translation_trait_have
	}
}

ChronicleTraitVerb30 = {
	type = character

	text = {
		trigger = {
			exists = var:type30
			exists = var:flag_a30
			var:type30 = flag:trait
			var:flag_a30 = flag:gain
		}
		localization_key = chronicle_translation_trait_gain
	}
	text = {
		trigger = {
			exists = var:type30
			exists = var:flag_a30
			var:type30 = flag:trait
			var:flag_a30 = flag:lose
		}
		localization_key = chronicle_translation_trait_lose
	}
	text = {
		trigger = {
			exists = var:type30
			exists = var:flag_a30
			var:type30 = flag:trait
			var:flag_a30 = flag:have
		}
		localization_key = chronicle_translation_trait_have
	}
}

ChronicleTraitVerb31 = {
	type = character

	text = {
		trigger = {
			exists = var:type31
			exists = var:flag_a31
			var:type31 = flag:trait
			var:flag_a31 = flag:gain
		}
		localization_key = chronicle_translation_trait_gain
	}
	text = {
		trigger = {
			exists = var:type31
			exists = var:flag_a31
			var:type31 = flag:trait
			var:flag_a31 = flag:lose
		}
		localization_key = chronicle_translation_trait_lose
	}
	text = {
		trigger = {
			exists = var:type31
			exists = var:flag_a31
			var:type31 = flag:trait
			var:flag_a31 = flag:have
		}
		localization_key = chronicle_translation_trait_have
	}
}

ChronicleTraitVerb32 = {
	type = character

	text = {
		trigger = {
			exists = var:type32
			exists = var:flag_a32
			var:type32 = flag:trait
			var:flag_a32 = flag:gain
		}
		localization_key = chronicle_translation_trait_gain
	}
	text = {
		trigger = {
			exists = var:type32
			exists = var:flag_a32
			var:type32 = flag:trait
			var:flag_a32 = flag:lose
		}
		localization_key = chronicle_translation_trait_lose
	}
	text = {
		trigger = {
			exists = var:type32
			exists = var:flag_a32
			var:type32 = flag:trait
			var:flag_a32 = flag:have
		}
		localization_key = chronicle_translation_trait_have
	}
}

ChronicleTraitVerb33 = {
	type = character

	text = {
		trigger = {
			exists = var:type33
			exists = var:flag_a33
			var:type33 = flag:trait
			var:flag_a33 = flag:gain
		}
		localization_key = chronicle_translation_trait_gain
	}
	text = {
		trigger = {
			exists = var:type33
			exists = var:flag_a33
			var:type33 = flag:trait
			var:flag_a33 = flag:lose
		}
		localization_key = chronicle_translation_trait_lose
	}
	text = {
		trigger = {
			exists = var:type33
			exists = var:flag_a33
			var:type33 = flag:trait
			var:flag_a33 = flag:have
		}
		localization_key = chronicle_translation_trait_have
	}
}

ChronicleTraitVerb34 = {
	type = character

	text = {
		trigger = {
			exists = var:type34
			exists = var:flag_a34
			var:type34 = flag:trait
			var:flag_a34 = flag:gain
		}
		localization_key = chronicle_translation_trait_gain
	}
	text = {
		trigger = {
			exists = var:type34
			exists = var:flag_a34
			var:type34 = flag:trait
			var:flag_a34 = flag:lose
		}
		localization_key = chronicle_translation_trait_lose
	}
	text = {
		trigger = {
			exists = var:type34
			exists = var:flag_a34
			var:type34 = flag:trait
			var:flag_a34 = flag:have
		}
		localization_key = chronicle_translation_trait_have
	}
}

ChronicleTraitVerb35 = {
	type = character

	text = {
		trigger = {
			exists = var:type35
			exists = var:flag_a35
			var:type35 = flag:trait
			var:flag_a35 = flag:gain
		}
		localization_key = chronicle_translation_trait_gain
	}
	text = {
		trigger = {
			exists = var:type35
			exists = var:flag_a35
			var:type35 = flag:trait
			var:flag_a35 = flag:lose
		}
		localization_key = chronicle_translation_trait_lose
	}
	text = {
		trigger = {
			exists = var:type35
			exists = var:flag_a35
			var:type35 = flag:trait
			var:flag_a35 = flag:have
		}
		localization_key = chronicle_translation_trait_have
	}
}

ChronicleTraitVerb36 = {
	type = character

	text = {
		trigger = {
			exists = var:type36
			exists = var:flag_a36
			var:type36 = flag:trait
			var:flag_a36 = flag:gain
		}
		localization_key = chronicle_translation_trait_gain
	}
	text = {
		trigger = {
			exists = var:type36
			exists = var:flag_a36
			var:type36 = flag:trait
			var:flag_a36 = flag:lose
		}
		localization_key = chronicle_translation_trait_lose
	}
	text = {
		trigger = {
			exists = var:type36
			exists = var:flag_a36
			var:type36 = flag:trait
			var:flag_a36 = flag:have
		}
		localization_key = chronicle_translation_trait_have
	}
}

ChronicleTraitVerb37 = {
	type = character

	text = {
		trigger = {
			exists = var:type37
			exists = var:flag_a37
			var:type37 = flag:trait
			var:flag_a37 = flag:gain
		}
		localization_key = chronicle_translation_trait_gain
	}
	text = {
		trigger = {
			exists = var:type37
			exists = var:flag_a37
			var:type37 = flag:trait
			var:flag_a37 = flag:lose
		}
		localization_key = chronicle_translation_trait_lose
	}
	text = {
		trigger = {
			exists = var:type37
			exists = var:flag_a37
			var:type37 = flag:trait
			var:flag_a37 = flag:have
		}
		localization_key = chronicle_translation_trait_have
	}
}

ChronicleTraitVerb38 = {
	type = character

	text = {
		trigger = {
			exists = var:type38
			exists = var:flag_a38
			var:type38 = flag:trait
			var:flag_a38 = flag:gain
		}
		localization_key = chronicle_translation_trait_gain
	}
	text = {
		trigger = {
			exists = var:type38
			exists = var:flag_a38
			var:type38 = flag:trait
			var:flag_a38 = flag:lose
		}
		localization_key = chronicle_translation_trait_lose
	}
	text = {
		trigger = {
			exists = var:type38
			exists = var:flag_a38
			var:type38 = flag:trait
			var:flag_a38 = flag:have
		}
		localization_key = chronicle_translation_trait_have
	}
}

ChronicleTraitVerb39 = {
	type = character

	text = {
		trigger = {
			exists = var:type39
			exists = var:flag_a39
			var:type39 = flag:trait
			var:flag_a39 = flag:gain
		}
		localization_key = chronicle_translation_trait_gain
	}
	text = {
		trigger = {
			exists = var:type39
			exists = var:flag_a39
			var:type39 = flag:trait
			var:flag_a39 = flag:lose
		}
		localization_key = chronicle_translation_trait_lose
	}
	text = {
		trigger = {
			exists = var:type39
			exists = var:flag_a39
			var:type39 = flag:trait
			var:flag_a39 = flag:have
		}
		localization_key = chronicle_translation_trait_have
	}
}

ChronicleTraitVerb40 = {
	type = character

	text = {
		trigger = {
			exists = var:type40
			exists = var:flag_a40
			var:type40 = flag:trait
			var:flag_a40 = flag:gain
		}
		localization_key = chronicle_translation_trait_gain
	}
	text = {
		trigger = {
			exists = var:type40
			exists = var:flag_a40
			var:type40 = flag:trait
			var:flag_a40 = flag:lose
		}
		localization_key = chronicle_translation_trait_lose
	}
	text = {
		trigger = {
			exists = var:type40
			exists = var:flag_a40
			var:type40 = flag:trait
			var:flag_a40 = flag:have
		}
		localization_key = chronicle_translation_trait_have
	}
}

ChronicleTraitVerb41 = {
	type = character

	text = {
		trigger = {
			exists = var:type41
			exists = var:flag_a41
			var:type41 = flag:trait
			var:flag_a41 = flag:gain
		}
		localization_key = chronicle_translation_trait_gain
	}
	text = {
		trigger = {
			exists = var:type41
			exists = var:flag_a41
			var:type41 = flag:trait
			var:flag_a41 = flag:lose
		}
		localization_key = chronicle_translation_trait_lose
	}
	text = {
		trigger = {
			exists = var:type41
			exists = var:flag_a41
			var:type41 = flag:trait
			var:flag_a41 = flag:have
		}
		localization_key = chronicle_translation_trait_have
	}
}

ChronicleTraitVerb42 = {
	type = character

	text = {
		trigger = {
			exists = var:type42
			exists = var:flag_a42
			var:type42 = flag:trait
			var:flag_a42 = flag:gain
		}
		localization_key = chronicle_translation_trait_gain
	}
	text = {
		trigger = {
			exists = var:type42
			exists = var:flag_a42
			var:type42 = flag:trait
			var:flag_a42 = flag:lose
		}
		localization_key = chronicle_translation_trait_lose
	}
	text = {
		trigger = {
			exists = var:type42
			exists = var:flag_a42
			var:type42 = flag:trait
			var:flag_a42 = flag:have
		}
		localization_key = chronicle_translation_trait_have
	}
}

ChronicleTraitVerb43 = {
	type = character

	text = {
		trigger = {
			exists = var:type43
			exists = var:flag_a43
			var:type43 = flag:trait
			var:flag_a43 = flag:gain
		}
		localization_key = chronicle_translation_trait_gain
	}
	text = {
		trigger = {
			exists = var:type43
			exists = var:flag_a43
			var:type43 = flag:trait
			var:flag_a43 = flag:lose
		}
		localization_key = chronicle_translation_trait_lose
	}
	text = {
		trigger = {
			exists = var:type43
			exists = var:flag_a43
			var:type43 = flag:trait
			var:flag_a43 = flag:have
		}
		localization_key = chronicle_translation_trait_have
	}
}

ChronicleTraitVerb44 = {
	type = character

	text = {
		trigger = {
			exists = var:type44
			exists = var:flag_a44
			var:type44 = flag:trait
			var:flag_a44 = flag:gain
		}
		localization_key = chronicle_translation_trait_gain
	}
	text = {
		trigger = {
			exists = var:type44
			exists = var:flag_a44
			var:type44 = flag:trait
			var:flag_a44 = flag:lose
		}
		localization_key = chronicle_translation_trait_lose
	}
	text = {
		trigger = {
			exists = var:type44
			exists = var:flag_a44
			var:type44 = flag:trait
			var:flag_a44 = flag:have
		}
		localization_key = chronicle_translation_trait_have
	}
}

ChronicleTraitVerb45 = {
	type = character

	text = {
		trigger = {
			exists = var:type45
			exists = var:flag_a45
			var:type45 = flag:trait
			var:flag_a45 = flag:gain
		}
		localization_key = chronicle_translation_trait_gain
	}
	text = {
		trigger = {
			exists = var:type45
			exists = var:flag_a45
			var:type45 = flag:trait
			var:flag_a45 = flag:lose
		}
		localization_key = chronicle_translation_trait_lose
	}
	text = {
		trigger = {
			exists = var:type45
			exists = var:flag_a45
			var:type45 = flag:trait
			var:flag_a45 = flag:have
		}
		localization_key = chronicle_translation_trait_have
	}
}

ChronicleTraitVerb46 = {
	type = character

	text = {
		trigger = {
			exists = var:type46
			exists = var:flag_a46
			var:type46 = flag:trait
			var:flag_a46 = flag:gain
		}
		localization_key = chronicle_translation_trait_gain
	}
	text = {
		trigger = {
			exists = var:type46
			exists = var:flag_a46
			var:type46 = flag:trait
			var:flag_a46 = flag:lose
		}
		localization_key = chronicle_translation_trait_lose
	}
	text = {
		trigger = {
			exists = var:type46
			exists = var:flag_a46
			var:type46 = flag:trait
			var:flag_a46 = flag:have
		}
		localization_key = chronicle_translation_trait_have
	}
}

ChronicleTraitVerb47 = {
	type = character

	text = {
		trigger = {
			exists = var:type47
			exists = var:flag_a47
			var:type47 = flag:trait
			var:flag_a47 = flag:gain
		}
		localization_key = chronicle_translation_trait_gain
	}
	text = {
		trigger = {
			exists = var:type47
			exists = var:flag_a47
			var:type47 = flag:trait
			var:flag_a47 = flag:lose
		}
		localization_key = chronicle_translation_trait_lose
	}
	text = {
		trigger = {
			exists = var:type47
			exists = var:flag_a47
			var:type47 = flag:trait
			var:flag_a47 = flag:have
		}
		localization_key = chronicle_translation_trait_have
	}
}

ChronicleTraitVerb48 = {
	type = character

	text = {
		trigger = {
			exists = var:type48
			exists = var:flag_a48
			var:type48 = flag:trait
			var:flag_a48 = flag:gain
		}
		localization_key = chronicle_translation_trait_gain
	}
	text = {
		trigger = {
			exists = var:type48
			exists = var:flag_a48
			var:type48 = flag:trait
			var:flag_a48 = flag:lose
		}
		localization_key = chronicle_translation_trait_lose
	}
	text = {
		trigger = {
			exists = var:type48
			exists = var:flag_a48
			var:type48 = flag:trait
			var:flag_a48 = flag:have
		}
		localization_key = chronicle_translation_trait_have
	}
}

ChronicleTraitVerb49 = {
	type = character

	text = {
		trigger = {
			exists = var:type49
			exists = var:flag_a49
			var:type49 = flag:trait
			var:flag_a49 = flag:gain
		}
		localization_key = chronicle_translation_trait_gain
	}
	text = {
		trigger = {
			exists = var:type49
			exists = var:flag_a49
			var:type49 = flag:trait
			var:flag_a49 = flag:lose
		}
		localization_key = chronicle_translation_trait_lose
	}
	text = {
		trigger = {
			exists = var:type49
			exists = var:flag_a49
			var:type49 = flag:trait
			var:flag_a49 = flag:have
		}
		localization_key = chronicle_translation_trait_have
	}
}

ChronicleTraitVerb50 = {
	type = character

	text = {
		trigger = {
			exists = var:type50
			exists = var:flag_a50
			var:type50 = flag:trait
			var:flag_a50 = flag:gain
		}
		localization_key = chronicle_translation_trait_gain
	}
	text = {
		trigger = {
			exists = var:type50
			exists = var:flag_a50
			var:type50 = flag:trait
			var:flag_a50 = flag:lose
		}
		localization_key = chronicle_translation_trait_lose
	}
	text = {
		trigger = {
			exists = var:type50
			exists = var:flag_a50
			var:type50 = flag:trait
			var:flag_a50 = flag:have
		}
		localization_key = chronicle_translation_trait_have
	}
}

ChronicleTraitVerb51 = {
	type = character

	text = {
		trigger = {
			exists = var:type51
			exists = var:flag_a51
			var:type51 = flag:trait
			var:flag_a51 = flag:gain
		}
		localization_key = chronicle_translation_trait_gain
	}
	text = {
		trigger = {
			exists = var:type51
			exists = var:flag_a51
			var:type51 = flag:trait
			var:flag_a51 = flag:lose
		}
		localization_key = chronicle_translation_trait_lose
	}
	text = {
		trigger = {
			exists = var:type51
			exists = var:flag_a51
			var:type51 = flag:trait
			var:flag_a51 = flag:have
		}
		localization_key = chronicle_translation_trait_have
	}
}

ChronicleTraitVerb52 = {
	type = character

	text = {
		trigger = {
			exists = var:type52
			exists = var:flag_a52
			var:type52 = flag:trait
			var:flag_a52 = flag:gain
		}
		localization_key = chronicle_translation_trait_gain
	}
	text = {
		trigger = {
			exists = var:type52
			exists = var:flag_a52
			var:type52 = flag:trait
			var:flag_a52 = flag:lose
		}
		localization_key = chronicle_translation_trait_lose
	}
	text = {
		trigger = {
			exists = var:type52
			exists = var:flag_a52
			var:type52 = flag:trait
			var:flag_a52 = flag:have
		}
		localization_key = chronicle_translation_trait_have
	}
}

ChronicleTraitVerb53 = {
	type = character

	text = {
		trigger = {
			exists = var:type53
			exists = var:flag_a53
			var:type53 = flag:trait
			var:flag_a53 = flag:gain
		}
		localization_key = chronicle_translation_trait_gain
	}
	text = {
		trigger = {
			exists = var:type53
			exists = var:flag_a53
			var:type53 = flag:trait
			var:flag_a53 = flag:lose
		}
		localization_key = chronicle_translation_trait_lose
	}
	text = {
		trigger = {
			exists = var:type53
			exists = var:flag_a53
			var:type53 = flag:trait
			var:flag_a53 = flag:have
		}
		localization_key = chronicle_translation_trait_have
	}
}

ChronicleTraitVerb54 = {
	type = character

	text = {
		trigger = {
			exists = var:type54
			exists = var:flag_a54
			var:type54 = flag:trait
			var:flag_a54 = flag:gain
		}
		localization_key = chronicle_translation_trait_gain
	}
	text = {
		trigger = {
			exists = var:type54
			exists = var:flag_a54
			var:type54 = flag:trait
			var:flag_a54 = flag:lose
		}
		localization_key = chronicle_translation_trait_lose
	}
	text = {
		trigger = {
			exists = var:type54
			exists = var:flag_a54
			var:type54 = flag:trait
			var:flag_a54 = flag:have
		}
		localization_key = chronicle_translation_trait_have
	}
}

ChronicleTraitVerb55 = {
	type = character

	text = {
		trigger = {
			exists = var:type55
			exists = var:flag_a55
			var:type55 = flag:trait
			var:flag_a55 = flag:gain
		}
		localization_key = chronicle_translation_trait_gain
	}
	text = {
		trigger = {
			exists = var:type55
			exists = var:flag_a55
			var:type55 = flag:trait
			var:flag_a55 = flag:lose
		}
		localization_key = chronicle_translation_trait_lose
	}
	text = {
		trigger = {
			exists = var:type55
			exists = var:flag_a55
			var:type55 = flag:trait
			var:flag_a55 = flag:have
		}
		localization_key = chronicle_translation_trait_have
	}
}

ChronicleTraitVerb56 = {
	type = character

	text = {
		trigger = {
			exists = var:type56
			exists = var:flag_a56
			var:type56 = flag:trait
			var:flag_a56 = flag:gain
		}
		localization_key = chronicle_translation_trait_gain
	}
	text = {
		trigger = {
			exists = var:type56
			exists = var:flag_a56
			var:type56 = flag:trait
			var:flag_a56 = flag:lose
		}
		localization_key = chronicle_translation_trait_lose
	}
	text = {
		trigger = {
			exists = var:type56
			exists = var:flag_a56
			var:type56 = flag:trait
			var:flag_a56 = flag:have
		}
		localization_key = chronicle_translation_trait_have
	}
}

ChronicleTraitVerb57 = {
	type = character

	text = {
		trigger = {
			exists = var:type57
			exists = var:flag_a57
			var:type57 = flag:trait
			var:flag_a57 = flag:gain
		}
		localization_key = chronicle_translation_trait_gain
	}
	text = {
		trigger = {
			exists = var:type57
			exists = var:flag_a57
			var:type57 = flag:trait
			var:flag_a57 = flag:lose
		}
		localization_key = chronicle_translation_trait_lose
	}
	text = {
		trigger = {
			exists = var:type57
			exists = var:flag_a57
			var:type57 = flag:trait
			var:flag_a57 = flag:have
		}
		localization_key = chronicle_translation_trait_have
	}
}

ChronicleTraitVerb58 = {
	type = character

	text = {
		trigger = {
			exists = var:type58
			exists = var:flag_a58
			var:type58 = flag:trait
			var:flag_a58 = flag:gain
		}
		localization_key = chronicle_translation_trait_gain
	}
	text = {
		trigger = {
			exists = var:type58
			exists = var:flag_a58
			var:type58 = flag:trait
			var:flag_a58 = flag:lose
		}
		localization_key = chronicle_translation_trait_lose
	}
	text = {
		trigger = {
			exists = var:type58
			exists = var:flag_a58
			var:type58 = flag:trait
			var:flag_a58 = flag:have
		}
		localization_key = chronicle_translation_trait_have
	}
}

ChronicleTraitVerb59 = {
	type = character

	text = {
		trigger = {
			exists = var:type59
			exists = var:flag_a59
			var:type59 = flag:trait
			var:flag_a59 = flag:gain
		}
		localization_key = chronicle_translation_trait_gain
	}
	text = {
		trigger = {
			exists = var:type59
			exists = var:flag_a59
			var:type59 = flag:trait
			var:flag_a59 = flag:lose
		}
		localization_key = chronicle_translation_trait_lose
	}
	text = {
		trigger = {
			exists = var:type59
			exists = var:flag_a59
			var:type59 = flag:trait
			var:flag_a59 = flag:have
		}
		localization_key = chronicle_translation_trait_have
	}
}

ChronicleTraitVerb60 = {
	type = character

	text = {
		trigger = {
			exists = var:type60
			exists = var:flag_a60
			var:type60 = flag:trait
			var:flag_a60 = flag:gain
		}
		localization_key = chronicle_translation_trait_gain
	}
	text = {
		trigger = {
			exists = var:type60
			exists = var:flag_a60
			var:type60 = flag:trait
			var:flag_a60 = flag:lose
		}
		localization_key = chronicle_translation_trait_lose
	}
	text = {
		trigger = {
			exists = var:type60
			exists = var:flag_a60
			var:type60 = flag:trait
			var:flag_a60 = flag:have
		}
		localization_key = chronicle_translation_trait_have
	}
}

ChronicleTraitVerb61 = {
	type = character

	text = {
		trigger = {
			exists = var:type61
			exists = var:flag_a61
			var:type61 = flag:trait
			var:flag_a61 = flag:gain
		}
		localization_key = chronicle_translation_trait_gain
	}
	text = {
		trigger = {
			exists = var:type61
			exists = var:flag_a61
			var:type61 = flag:trait
			var:flag_a61 = flag:lose
		}
		localization_key = chronicle_translation_trait_lose
	}
	text = {
		trigger = {
			exists = var:type61
			exists = var:flag_a61
			var:type61 = flag:trait
			var:flag_a61 = flag:have
		}
		localization_key = chronicle_translation_trait_have
	}
}

ChronicleTraitVerb62 = {
	type = character

	text = {
		trigger = {
			exists = var:type62
			exists = var:flag_a62
			var:type62 = flag:trait
			var:flag_a62 = flag:gain
		}
		localization_key = chronicle_translation_trait_gain
	}
	text = {
		trigger = {
			exists = var:type62
			exists = var:flag_a62
			var:type62 = flag:trait
			var:flag_a62 = flag:lose
		}
		localization_key = chronicle_translation_trait_lose
	}
	text = {
		trigger = {
			exists = var:type62
			exists = var:flag_a62
			var:type62 = flag:trait
			var:flag_a62 = flag:have
		}
		localization_key = chronicle_translation_trait_have
	}
}

ChronicleTraitVerb63 = {
	type = character

	text = {
		trigger = {
			exists = var:type63
			exists = var:flag_a63
			var:type63 = flag:trait
			var:flag_a63 = flag:gain
		}
		localization_key = chronicle_translation_trait_gain
	}
	text = {
		trigger = {
			exists = var:type63
			exists = var:flag_a63
			var:type63 = flag:trait
			var:flag_a63 = flag:lose
		}
		localization_key = chronicle_translation_trait_lose
	}
	text = {
		trigger = {
			exists = var:type63
			exists = var:flag_a63
			var:type63 = flag:trait
			var:flag_a63 = flag:have
		}
		localization_key = chronicle_translation_trait_have
	}
}

ChronicleTraitVerb64 = {
	type = character

	text = {
		trigger = {
			exists = var:type64
			exists = var:flag_a64
			var:type64 = flag:trait
			var:flag_a64 = flag:gain
		}
		localization_key = chronicle_translation_trait_gain
	}
	text = {
		trigger = {
			exists = var:type64
			exists = var:flag_a64
			var:type64 = flag:trait
			var:flag_a64 = flag:lose
		}
		localization_key = chronicle_translation_trait_lose
	}
	text = {
		trigger = {
			exists = var:type64
			exists = var:flag_a64
			var:type64 = flag:trait
			var:flag_a64 = flag:have
		}
		localization_key = chronicle_translation_trait_have
	}
}

ChronicleTraitVerb65 = {
	type = character

	text = {
		trigger = {
			exists = var:type65
			exists = var:flag_a65
			var:type65 = flag:trait
			var:flag_a65 = flag:gain
		}
		localization_key = chronicle_translation_trait_gain
	}
	text = {
		trigger = {
			exists = var:type65
			exists = var:flag_a65
			var:type65 = flag:trait
			var:flag_a65 = flag:lose
		}
		localization_key = chronicle_translation_trait_lose
	}
	text = {
		trigger = {
			exists = var:type65
			exists = var:flag_a65
			var:type65 = flag:trait
			var:flag_a65 = flag:have
		}
		localization_key = chronicle_translation_trait_have
	}
}

ChronicleTraitVerb66 = {
	type = character

	text = {
		trigger = {
			exists = var:type66
			exists = var:flag_a66
			var:type66 = flag:trait
			var:flag_a66 = flag:gain
		}
		localization_key = chronicle_translation_trait_gain
	}
	text = {
		trigger = {
			exists = var:type66
			exists = var:flag_a66
			var:type66 = flag:trait
			var:flag_a66 = flag:lose
		}
		localization_key = chronicle_translation_trait_lose
	}
	text = {
		trigger = {
			exists = var:type66
			exists = var:flag_a66
			var:type66 = flag:trait
			var:flag_a66 = flag:have
		}
		localization_key = chronicle_translation_trait_have
	}
}

ChronicleTraitVerb67 = {
	type = character

	text = {
		trigger = {
			exists = var:type67
			exists = var:flag_a67
			var:type67 = flag:trait
			var:flag_a67 = flag:gain
		}
		localization_key = chronicle_translation_trait_gain
	}
	text = {
		trigger = {
			exists = var:type67
			exists = var:flag_a67
			var:type67 = flag:trait
			var:flag_a67 = flag:lose
		}
		localization_key = chronicle_translation_trait_lose
	}
	text = {
		trigger = {
			exists = var:type67
			exists = var:flag_a67
			var:type67 = flag:trait
			var:flag_a67 = flag:have
		}
		localization_key = chronicle_translation_trait_have
	}
}

ChronicleTraitVerb68 = {
	type = character

	text = {
		trigger = {
			exists = var:type68
			exists = var:flag_a68
			var:type68 = flag:trait
			var:flag_a68 = flag:gain
		}
		localization_key = chronicle_translation_trait_gain
	}
	text = {
		trigger = {
			exists = var:type68
			exists = var:flag_a68
			var:type68 = flag:trait
			var:flag_a68 = flag:lose
		}
		localization_key = chronicle_translation_trait_lose
	}
	text = {
		trigger = {
			exists = var:type68
			exists = var:flag_a68
			var:type68 = flag:trait
			var:flag_a68 = flag:have
		}
		localization_key = chronicle_translation_trait_have
	}
}

ChronicleTraitVerb69 = {
	type = character

	text = {
		trigger = {
			exists = var:type69
			exists = var:flag_a69
			var:type69 = flag:trait
			var:flag_a69 = flag:gain
		}
		localization_key = chronicle_translation_trait_gain
	}
	text = {
		trigger = {
			exists = var:type69
			exists = var:flag_a69
			var:type69 = flag:trait
			var:flag_a69 = flag:lose
		}
		localization_key = chronicle_translation_trait_lose
	}
	text = {
		trigger = {
			exists = var:type69
			exists = var:flag_a69
			var:type69 = flag:trait
			var:flag_a69 = flag:have
		}
		localization_key = chronicle_translation_trait_have
	}
}

ChronicleTraitVerb70 = {
	type = character

	text = {
		trigger = {
			exists = var:type70
			exists = var:flag_a70
			var:type70 = flag:trait
			var:flag_a70 = flag:gain
		}
		localization_key = chronicle_translation_trait_gain
	}
	text = {
		trigger = {
			exists = var:type70
			exists = var:flag_a70
			var:type70 = flag:trait
			var:flag_a70 = flag:lose
		}
		localization_key = chronicle_translation_trait_lose
	}
	text = {
		trigger = {
			exists = var:type70
			exists = var:flag_a70
			var:type70 = flag:trait
			var:flag_a70 = flag:have
		}
		localization_key = chronicle_translation_trait_have
	}
}

ChronicleTraitVerb71 = {
	type = character

	text = {
		trigger = {
			exists = var:type71
			exists = var:flag_a71
			var:type71 = flag:trait
			var:flag_a71 = flag:gain
		}
		localization_key = chronicle_translation_trait_gain
	}
	text = {
		trigger = {
			exists = var:type71
			exists = var:flag_a71
			var:type71 = flag:trait
			var:flag_a71 = flag:lose
		}
		localization_key = chronicle_translation_trait_lose
	}
	text = {
		trigger = {
			exists = var:type71
			exists = var:flag_a71
			var:type71 = flag:trait
			var:flag_a71 = flag:have
		}
		localization_key = chronicle_translation_trait_have
	}
}

ChronicleTraitVerb72 = {
	type = character

	text = {
		trigger = {
			exists = var:type72
			exists = var:flag_a72
			var:type72 = flag:trait
			var:flag_a72 = flag:gain
		}
		localization_key = chronicle_translation_trait_gain
	}
	text = {
		trigger = {
			exists = var:type72
			exists = var:flag_a72
			var:type72 = flag:trait
			var:flag_a72 = flag:lose
		}
		localization_key = chronicle_translation_trait_lose
	}
	text = {
		trigger = {
			exists = var:type72
			exists = var:flag_a72
			var:type72 = flag:trait
			var:flag_a72 = flag:have
		}
		localization_key = chronicle_translation_trait_have
	}
}

ChronicleTraitVerb73 = {
	type = character

	text = {
		trigger = {
			exists = var:type73
			exists = var:flag_a73
			var:type73 = flag:trait
			var:flag_a73 = flag:gain
		}
		localization_key = chronicle_translation_trait_gain
	}
	text = {
		trigger = {
			exists = var:type73
			exists = var:flag_a73
			var:type73 = flag:trait
			var:flag_a73 = flag:lose
		}
		localization_key = chronicle_translation_trait_lose
	}
	text = {
		trigger = {
			exists = var:type73
			exists = var:flag_a73
			var:type73 = flag:trait
			var:flag_a73 = flag:have
		}
		localization_key = chronicle_translation_trait_have
	}
}

ChronicleTraitVerb74 = {
	type = character

	text = {
		trigger = {
			exists = var:type74
			exists = var:flag_a74
			var:type74 = flag:trait
			var:flag_a74 = flag:gain
		}
		localization_key = chronicle_translation_trait_gain
	}
	text = {
		trigger = {
			exists = var:type74
			exists = var:flag_a74
			var:type74 = flag:trait
			var:flag_a74 = flag:lose
		}
		localization_key = chronicle_translation_trait_lose
	}
	text = {
		trigger = {
			exists = var:type74
			exists = var:flag_a74
			var:type74 = flag:trait
			var:flag_a74 = flag:have
		}
		localization_key = chronicle_translation_trait_have
	}
}

ChronicleTraitVerb75 = {
	type = character

	text = {
		trigger = {
			exists = var:type75
			exists = var:flag_a75
			var:type75 = flag:trait
			var:flag_a75 = flag:gain
		}
		localization_key = chronicle_translation_trait_gain
	}
	text = {
		trigger = {
			exists = var:type75
			exists = var:flag_a75
			var:type75 = flag:trait
			var:flag_a75 = flag:lose
		}
		localization_key = chronicle_translation_trait_lose
	}
	text = {
		trigger = {
			exists = var:type75
			exists = var:flag_a75
			var:type75 = flag:trait
			var:flag_a75 = flag:have
		}
		localization_key = chronicle_translation_trait_have
	}
}

ChronicleTraitVerb76 = {
	type = character

	text = {
		trigger = {
			exists = var:type76
			exists = var:flag_a76
			var:type76 = flag:trait
			var:flag_a76 = flag:gain
		}
		localization_key = chronicle_translation_trait_gain
	}
	text = {
		trigger = {
			exists = var:type76
			exists = var:flag_a76
			var:type76 = flag:trait
			var:flag_a76 = flag:lose
		}
		localization_key = chronicle_translation_trait_lose
	}
	text = {
		trigger = {
			exists = var:type76
			exists = var:flag_a76
			var:type76 = flag:trait
			var:flag_a76 = flag:have
		}
		localization_key = chronicle_translation_trait_have
	}
}

ChronicleTraitVerb77 = {
	type = character

	text = {
		trigger = {
			exists = var:type77
			exists = var:flag_a77
			var:type77 = flag:trait
			var:flag_a77 = flag:gain
		}
		localization_key = chronicle_translation_trait_gain
	}
	text = {
		trigger = {
			exists = var:type77
			exists = var:flag_a77
			var:type77 = flag:trait
			var:flag_a77 = flag:lose
		}
		localization_key = chronicle_translation_trait_lose
	}
	text = {
		trigger = {
			exists = var:type77
			exists = var:flag_a77
			var:type77 = flag:trait
			var:flag_a77 = flag:have
		}
		localization_key = chronicle_translation_trait_have
	}
}

ChronicleTraitVerb78 = {
	type = character

	text = {
		trigger = {
			exists = var:type78
			exists = var:flag_a78
			var:type78 = flag:trait
			var:flag_a78 = flag:gain
		}
		localization_key = chronicle_translation_trait_gain
	}
	text = {
		trigger = {
			exists = var:type78
			exists = var:flag_a78
			var:type78 = flag:trait
			var:flag_a78 = flag:lose
		}
		localization_key = chronicle_translation_trait_lose
	}
	text = {
		trigger = {
			exists = var:type78
			exists = var:flag_a78
			var:type78 = flag:trait
			var:flag_a78 = flag:have
		}
		localization_key = chronicle_translation_trait_have
	}
}

ChronicleTraitVerb79 = {
	type = character

	text = {
		trigger = {
			exists = var:type79
			exists = var:flag_a79
			var:type79 = flag:trait
			var:flag_a79 = flag:gain
		}
		localization_key = chronicle_translation_trait_gain
	}
	text = {
		trigger = {
			exists = var:type79
			exists = var:flag_a79
			var:type79 = flag:trait
			var:flag_a79 = flag:lose
		}
		localization_key = chronicle_translation_trait_lose
	}
	text = {
		trigger = {
			exists = var:type79
			exists = var:flag_a79
			var:type79 = flag:trait
			var:flag_a79 = flag:have
		}
		localization_key = chronicle_translation_trait_have
	}
}

ChronicleTraitVerb80 = {
	type = character

	text = {
		trigger = {
			exists = var:type80
			exists = var:flag_a80
			var:type80 = flag:trait
			var:flag_a80 = flag:gain
		}
		localization_key = chronicle_translation_trait_gain
	}
	text = {
		trigger = {
			exists = var:type80
			exists = var:flag_a80
			var:type80 = flag:trait
			var:flag_a80 = flag:lose
		}
		localization_key = chronicle_translation_trait_lose
	}
	text = {
		trigger = {
			exists = var:type80
			exists = var:flag_a80
			var:type80 = flag:trait
			var:flag_a80 = flag:have
		}
		localization_key = chronicle_translation_trait_have
	}
}

ChronicleTraitVerb81 = {
	type = character

	text = {
		trigger = {
			exists = var:type81
			exists = var:flag_a81
			var:type81 = flag:trait
			var:flag_a81 = flag:gain
		}
		localization_key = chronicle_translation_trait_gain
	}
	text = {
		trigger = {
			exists = var:type81
			exists = var:flag_a81
			var:type81 = flag:trait
			var:flag_a81 = flag:lose
		}
		localization_key = chronicle_translation_trait_lose
	}
	text = {
		trigger = {
			exists = var:type81
			exists = var:flag_a81
			var:type81 = flag:trait
			var:flag_a81 = flag:have
		}
		localization_key = chronicle_translation_trait_have
	}
}

ChronicleTraitVerb82 = {
	type = character

	text = {
		trigger = {
			exists = var:type82
			exists = var:flag_a82
			var:type82 = flag:trait
			var:flag_a82 = flag:gain
		}
		localization_key = chronicle_translation_trait_gain
	}
	text = {
		trigger = {
			exists = var:type82
			exists = var:flag_a82
			var:type82 = flag:trait
			var:flag_a82 = flag:lose
		}
		localization_key = chronicle_translation_trait_lose
	}
	text = {
		trigger = {
			exists = var:type82
			exists = var:flag_a82
			var:type82 = flag:trait
			var:flag_a82 = flag:have
		}
		localization_key = chronicle_translation_trait_have
	}
}

ChronicleTraitVerb83 = {
	type = character

	text = {
		trigger = {
			exists = var:type83
			exists = var:flag_a83
			var:type83 = flag:trait
			var:flag_a83 = flag:gain
		}
		localization_key = chronicle_translation_trait_gain
	}
	text = {
		trigger = {
			exists = var:type83
			exists = var:flag_a83
			var:type83 = flag:trait
			var:flag_a83 = flag:lose
		}
		localization_key = chronicle_translation_trait_lose
	}
	text = {
		trigger = {
			exists = var:type83
			exists = var:flag_a83
			var:type83 = flag:trait
			var:flag_a83 = flag:have
		}
		localization_key = chronicle_translation_trait_have
	}
}

ChronicleTraitVerb84 = {
	type = character

	text = {
		trigger = {
			exists = var:type84
			exists = var:flag_a84
			var:type84 = flag:trait
			var:flag_a84 = flag:gain
		}
		localization_key = chronicle_translation_trait_gain
	}
	text = {
		trigger = {
			exists = var:type84
			exists = var:flag_a84
			var:type84 = flag:trait
			var:flag_a84 = flag:lose
		}
		localization_key = chronicle_translation_trait_lose
	}
	text = {
		trigger = {
			exists = var:type84
			exists = var:flag_a84
			var:type84 = flag:trait
			var:flag_a84 = flag:have
		}
		localization_key = chronicle_translation_trait_have
	}
}

ChronicleTraitVerb85 = {
	type = character

	text = {
		trigger = {
			exists = var:type85
			exists = var:flag_a85
			var:type85 = flag:trait
			var:flag_a85 = flag:gain
		}
		localization_key = chronicle_translation_trait_gain
	}
	text = {
		trigger = {
			exists = var:type85
			exists = var:flag_a85
			var:type85 = flag:trait
			var:flag_a85 = flag:lose
		}
		localization_key = chronicle_translation_trait_lose
	}
	text = {
		trigger = {
			exists = var:type85
			exists = var:flag_a85
			var:type85 = flag:trait
			var:flag_a85 = flag:have
		}
		localization_key = chronicle_translation_trait_have
	}
}

ChronicleTraitVerb86 = {
	type = character

	text = {
		trigger = {
			exists = var:type86
			exists = var:flag_a86
			var:type86 = flag:trait
			var:flag_a86 = flag:gain
		}
		localization_key = chronicle_translation_trait_gain
	}
	text = {
		trigger = {
			exists = var:type86
			exists = var:flag_a86
			var:type86 = flag:trait
			var:flag_a86 = flag:lose
		}
		localization_key = chronicle_translation_trait_lose
	}
	text = {
		trigger = {
			exists = var:type86
			exists = var:flag_a86
			var:type86 = flag:trait
			var:flag_a86 = flag:have
		}
		localization_key = chronicle_translation_trait_have
	}
}

ChronicleTraitVerb87 = {
	type = character

	text = {
		trigger = {
			exists = var:type87
			exists = var:flag_a87
			var:type87 = flag:trait
			var:flag_a87 = flag:gain
		}
		localization_key = chronicle_translation_trait_gain
	}
	text = {
		trigger = {
			exists = var:type87
			exists = var:flag_a87
			var:type87 = flag:trait
			var:flag_a87 = flag:lose
		}
		localization_key = chronicle_translation_trait_lose
	}
	text = {
		trigger = {
			exists = var:type87
			exists = var:flag_a87
			var:type87 = flag:trait
			var:flag_a87 = flag:have
		}
		localization_key = chronicle_translation_trait_have
	}
}

ChronicleTraitVerb88 = {
	type = character

	text = {
		trigger = {
			exists = var:type88
			exists = var:flag_a88
			var:type88 = flag:trait
			var:flag_a88 = flag:gain
		}
		localization_key = chronicle_translation_trait_gain
	}
	text = {
		trigger = {
			exists = var:type88
			exists = var:flag_a88
			var:type88 = flag:trait
			var:flag_a88 = flag:lose
		}
		localization_key = chronicle_translation_trait_lose
	}
	text = {
		trigger = {
			exists = var:type88
			exists = var:flag_a88
			var:type88 = flag:trait
			var:flag_a88 = flag:have
		}
		localization_key = chronicle_translation_trait_have
	}
}

ChronicleTraitVerb89 = {
	type = character

	text = {
		trigger = {
			exists = var:type89
			exists = var:flag_a89
			var:type89 = flag:trait
			var:flag_a89 = flag:gain
		}
		localization_key = chronicle_translation_trait_gain
	}
	text = {
		trigger = {
			exists = var:type89
			exists = var:flag_a89
			var:type89 = flag:trait
			var:flag_a89 = flag:lose
		}
		localization_key = chronicle_translation_trait_lose
	}
	text = {
		trigger = {
			exists = var:type89
			exists = var:flag_a89
			var:type89 = flag:trait
			var:flag_a89 = flag:have
		}
		localization_key = chronicle_translation_trait_have
	}
}

ChronicleTraitVerb90 = {
	type = character

	text = {
		trigger = {
			exists = var:type90
			exists = var:flag_a90
			var:type90 = flag:trait
			var:flag_a90 = flag:gain
		}
		localization_key = chronicle_translation_trait_gain
	}
	text = {
		trigger = {
			exists = var:type90
			exists = var:flag_a90
			var:type90 = flag:trait
			var:flag_a90 = flag:lose
		}
		localization_key = chronicle_translation_trait_lose
	}
	text = {
		trigger = {
			exists = var:type90
			exists = var:flag_a90
			var:type90 = flag:trait
			var:flag_a90 = flag:have
		}
		localization_key = chronicle_translation_trait_have
	}
}

ChronicleTraitVerb91 = {
	type = character

	text = {
		trigger = {
			exists = var:type91
			exists = var:flag_a91
			var:type91 = flag:trait
			var:flag_a91 = flag:gain
		}
		localization_key = chronicle_translation_trait_gain
	}
	text = {
		trigger = {
			exists = var:type91
			exists = var:flag_a91
			var:type91 = flag:trait
			var:flag_a91 = flag:lose
		}
		localization_key = chronicle_translation_trait_lose
	}
	text = {
		trigger = {
			exists = var:type91
			exists = var:flag_a91
			var:type91 = flag:trait
			var:flag_a91 = flag:have
		}
		localization_key = chronicle_translation_trait_have
	}
}

ChronicleTraitVerb92 = {
	type = character

	text = {
		trigger = {
			exists = var:type92
			exists = var:flag_a92
			var:type92 = flag:trait
			var:flag_a92 = flag:gain
		}
		localization_key = chronicle_translation_trait_gain
	}
	text = {
		trigger = {
			exists = var:type92
			exists = var:flag_a92
			var:type92 = flag:trait
			var:flag_a92 = flag:lose
		}
		localization_key = chronicle_translation_trait_lose
	}
	text = {
		trigger = {
			exists = var:type92
			exists = var:flag_a92
			var:type92 = flag:trait
			var:flag_a92 = flag:have
		}
		localization_key = chronicle_translation_trait_have
	}
}

ChronicleTraitVerb93 = {
	type = character

	text = {
		trigger = {
			exists = var:type93
			exists = var:flag_a93
			var:type93 = flag:trait
			var:flag_a93 = flag:gain
		}
		localization_key = chronicle_translation_trait_gain
	}
	text = {
		trigger = {
			exists = var:type93
			exists = var:flag_a93
			var:type93 = flag:trait
			var:flag_a93 = flag:lose
		}
		localization_key = chronicle_translation_trait_lose
	}
	text = {
		trigger = {
			exists = var:type93
			exists = var:flag_a93
			var:type93 = flag:trait
			var:flag_a93 = flag:have
		}
		localization_key = chronicle_translation_trait_have
	}
}

ChronicleTraitVerb94 = {
	type = character

	text = {
		trigger = {
			exists = var:type94
			exists = var:flag_a94
			var:type94 = flag:trait
			var:flag_a94 = flag:gain
		}
		localization_key = chronicle_translation_trait_gain
	}
	text = {
		trigger = {
			exists = var:type94
			exists = var:flag_a94
			var:type94 = flag:trait
			var:flag_a94 = flag:lose
		}
		localization_key = chronicle_translation_trait_lose
	}
	text = {
		trigger = {
			exists = var:type94
			exists = var:flag_a94
			var:type94 = flag:trait
			var:flag_a94 = flag:have
		}
		localization_key = chronicle_translation_trait_have
	}
}

ChronicleTraitVerb95 = {
	type = character

	text = {
		trigger = {
			exists = var:type95
			exists = var:flag_a95
			var:type95 = flag:trait
			var:flag_a95 = flag:gain
		}
		localization_key = chronicle_translation_trait_gain
	}
	text = {
		trigger = {
			exists = var:type95
			exists = var:flag_a95
			var:type95 = flag:trait
			var:flag_a95 = flag:lose
		}
		localization_key = chronicle_translation_trait_lose
	}
	text = {
		trigger = {
			exists = var:type95
			exists = var:flag_a95
			var:type95 = flag:trait
			var:flag_a95 = flag:have
		}
		localization_key = chronicle_translation_trait_have
	}
}

ChronicleTraitVerb96 = {
	type = character

	text = {
		trigger = {
			exists = var:type96
			exists = var:flag_a96
			var:type96 = flag:trait
			var:flag_a96 = flag:gain
		}
		localization_key = chronicle_translation_trait_gain
	}
	text = {
		trigger = {
			exists = var:type96
			exists = var:flag_a96
			var:type96 = flag:trait
			var:flag_a96 = flag:lose
		}
		localization_key = chronicle_translation_trait_lose
	}
	text = {
		trigger = {
			exists = var:type96
			exists = var:flag_a96
			var:type96 = flag:trait
			var:flag_a96 = flag:have
		}
		localization_key = chronicle_translation_trait_have
	}
}

ChronicleTraitVerb97 = {
	type = character

	text = {
		trigger = {
			exists = var:type97
			exists = var:flag_a97
			var:type97 = flag:trait
			var:flag_a97 = flag:gain
		}
		localization_key = chronicle_translation_trait_gain
	}
	text = {
		trigger = {
			exists = var:type97
			exists = var:flag_a97
			var:type97 = flag:trait
			var:flag_a97 = flag:lose
		}
		localization_key = chronicle_translation_trait_lose
	}
	text = {
		trigger = {
			exists = var:type97
			exists = var:flag_a97
			var:type97 = flag:trait
			var:flag_a97 = flag:have
		}
		localization_key = chronicle_translation_trait_have
	}
}

ChronicleTraitVerb98 = {
	type = character

	text = {
		trigger = {
			exists = var:type98
			exists = var:flag_a98
			var:type98 = flag:trait
			var:flag_a98 = flag:gain
		}
		localization_key = chronicle_translation_trait_gain
	}
	text = {
		trigger = {
			exists = var:type98
			exists = var:flag_a98
			var:type98 = flag:trait
			var:flag_a98 = flag:lose
		}
		localization_key = chronicle_translation_trait_lose
	}
	text = {
		trigger = {
			exists = var:type98
			exists = var:flag_a98
			var:type98 = flag:trait
			var:flag_a98 = flag:have
		}
		localization_key = chronicle_translation_trait_have
	}
}

ChronicleTraitVerb99 = {
	type = character

	text = {
		trigger = {
			exists = var:type99
			exists = var:flag_a99
			var:type99 = flag:trait
			var:flag_a99 = flag:gain
		}
		localization_key = chronicle_translation_trait_gain
	}
	text = {
		trigger = {
			exists = var:type99
			exists = var:flag_a99
			var:type99 = flag:trait
			var:flag_a99 = flag:lose
		}
		localization_key = chronicle_translation_trait_lose
	}
	text = {
		trigger = {
			exists = var:type99
			exists = var:flag_a99
			var:type99 = flag:trait
			var:flag_a99 = flag:have
		}
		localization_key = chronicle_translation_trait_have
	}
}

ChronicleTraitVerb100 = {
	type = character

	text = {
		trigger = {
			exists = var:type100
			exists = var:flag_a100
			var:type100 = flag:trait
			var:flag_a100 = flag:gain
		}
		localization_key = chronicle_translation_trait_gain
	}
	text = {
		trigger = {
			exists = var:type100
			exists = var:flag_a100
			var:type100 = flag:trait
			var:flag_a100 = flag:lose
		}
		localization_key = chronicle_translation_trait_lose
	}
	text = {
		trigger = {
			exists = var:type100
			exists = var:flag_a100
			var:type100 = flag:trait
			var:flag_a100 = flag:have
		}
		localization_key = chronicle_translation_trait_have
	}
}
